"","participant","chart","mean_correct","mean_time_taken"
"1","P1","s1",1,1368400914.48148
"2","P1","s2",1,937626886.321429
"3","P1","s3",1,764603497.862069
"4","P10","s1",0.96551724137931,739745657.034483
"5","P10","s2",0.964285714285714,874709929.571429
"6","P10","s3",1,760231003.571429
"7","P11","s1",1,1064513443.81481
"8","P11","s2",1,926791337.464286
"9","P11","s3",1,907287965.724138
"10","P12","s1",1,1020497621.78571
"11","P12","s2",0.964285714285714,889821549.571429
"12","P12","s3",1,899938942.413793
"13","P13","s1",1,690098668.678571
"14","P13","s2",0.96551724137931,1555521811.17241
"15","P13","s3",1,1144075375.82759
"16","P14","s1",0.896551724137931,971447798.551724
"17","P14","s2",1,1211267833.55172
"18","P14","s3",1,901668454.714286
"19","P15","s1",0.962962962962963,1496570888.55556
"20","P15","s2",0.928571428571429,2820253069.10714
"21","P15","s3",0.892857142857143,1295959626.53571
"22","P16","s1",1,869615302.892857
"23","P16","s2",0.96551724137931,1229979462.55172
"24","P16","s3",1,1846552645.25
"25","P17","s1",0.964285714285714,837850235.714286
"26","P17","s2",0.481481481481481,1143777984.33333
"27","P17","s3",0.896551724137931,1071374854.48276
"28","P18","s1",1,682603329.678571
"29","P18","s2",0.962962962962963,707242298.444444
"30","P18","s3",1,798015920.076923
"31","P2","s1",0.96551724137931,889085481.241379
"32","P2","s2",0.964285714285714,770910710.392857
"33","P2","s3",0.896551724137931,857563575.103448
"34","P3","s1",0.928571428571429,1240977098.39286
"35","P3","s2",1,1546252417.46429
"36","P3","s3",1,1044643090.17857
"37","P4","s1",1,761943205.821429
"38","P4","s2",1,1719048012.37931
"39","P4","s3",0.96551724137931,968863834.37931
"40","P5","s1",1,1180369012.13793
"41","P5","s2",1,1152011676.41379
"42","P5","s3",1,1220552534.03571
"43","P6","s1",1,763300683.827586
"44","P6","s2",0.964285714285714,1027611098.71429
"45","P6","s3",0.964285714285714,868772606.607143
"46","P7","s1",0.793103448275862,1481921362.62069
"47","P7","s2",0.931034482758621,1320700514.96552
"48","P7","s3",0.96551724137931,1685423220.72414
"49","P8","s1",0.931034482758621,1008200272.75862
"50","P8","s2",0.96551724137931,1008233988.24138
"51","P8","s3",1,1332368250.35714
"52","P9","s1",1,1035230627.10345
"53","P9","s2",1,1095263294.60714
"54","P9","s3",1,1370198903.25
