participant,timestamp,chart,elements,trial,file,time,answer
P1,2.58E+14,s1,t1,practice,s1_12_t1rt2rt3r,5374769078,correct
P1,2.58E+14,s1,t1,practice,s1_32_t1rt2lt3r,2342371247,correct
P1,2.58E+14,s1,t1,practice,s1_8_t1lt2rt3l,1281083942,correct
P1,2.58E+14,s1,t1,practice,s1_16_t1lt2rt3r,1723099897,correct
P1,2.58E+14,s1,t1,practice,s1_0_t1rt2rt3l,1257331945,correct
P1,2.58E+14,s1,t1,practice,s1_4_t1rt2rt3l,1006206494,correct
P1,2.58E+14,s1,t1,practice,s1_24_t1rt2lt3l,403865325,correct
P1,2.58E+14,s1,t1,practice,s1_28_t1lt2lt3l,829175145,correct
P1,2.58E+14,s1,t1,practice,s1_20_t1rt2lt3l,674501457,correct
P1,2.58E+14,s1,t1,practice,s1_36_t1lt2lt3r,817752991,correct
P1,2.58E+14,s1,t1,practice,s1_0_t1rt2rt3l,682296657,correct
P1,2.58E+14,s1,t1,practice,s1_8_t1lt2rt3l,631600273,correct
P1,2.58E+14,s1,t1,practice,s1_28_t1lt2lt3l,643158952,correct
P1,2.58E+14,s1,t1,practice,s1_12_t1rt2rt3r,1415998453,correct
P1,2.58E+14,s1,t1,practice,s1_24_t1rt2lt3l,983674192,correct
P1,2.58E+14,s1,t1,trial,s1_2_t1rt2rt3l,1327041195,correct
P1,2.58E+14,s1,t1,trial,s1_9_t1lt2rt3l,905609542,correct
P1,2.58E+14,s1,t1,trial,s1_39_t1lt2lt3r,846071765,correct
P1,2.58E+14,s1,t1,trial,s1_23_t1rt2lt3l,660657212,correct
P1,2.58E+14,s1,t1,trial,s1_6_t1lt2rt3l,582217267,correct
P1,2.58E+14,s1,t1,trial,s1_37_t1lt2lt3r,663623242,correct
P1,2.58E+14,s1,t1,trial,s1_35_t1lt2lt3r,745548273,correct
P1,2.58E+14,s1,t1,trial,s1_15_t1lt2rt3r,524411524,correct
P1,2.58E+14,s1,t1,trial,s1_34_t1rt2lt3r,1577342688,correct
P1,2.58E+14,s1,t1,trial,s1_22_t1rt2lt3l,712732315,correct
P1,2.58E+14,s1,t1,trial,s1_19_t1lt2rt3r,993802338,correct
P1,2.58E+14,s1,t1,trial,s1_30_t1rt2lt3r,1430642942,correct
P1,2.59E+14,s1,t1,trial,s1_21_t1rt2lt3l,280201318,correct
P1,2.59E+14,s1,t1,trial,s1_18_t1lt2rt3r,883721193,correct
P1,2.59E+14,s1,t1,trial,s1_10_t1rt2rt3r,681764479,correct
P1,2.59E+14,s1,t1,trial,s1_29_t1lt2lt3l,808230986,correct
P1,2.59E+14,s1,t1,trial,s1_31_t1rt2lt3r,2468450094,correct
P1,2.59E+14,s1,t1,trial,s1_5_t1lt2rt3l,733985722,correct
P1,2.59E+14,s1,t1,trial,s1_7_t1lt2rt3l,638600429,correct
P1,2.59E+14,s1,t1,trial,s1_3_t1rt2rt3l,1279954537,correct
P1,2.59E+14,s1,t1,trial,s1_27_t1lt2lt3l,965019065,correct
P1,2.59E+14,s1,t1,trial,s1_11_t1rt2rt3r,859655522,correct
P1,2.59E+14,s1,t1,trial,s1_14_t1rt2rt3r,1773934108,correct
P1,2.59E+14,s1,t1,trial,s1_1_t1rt2rt3l,1327533248,correct
P1,2.59E+14,s1,t1,trial,s1_25_t1lt2lt3l,728206324,correct
P1,2.59E+14,s1,t1,trial,s1_26_t1lt2lt3l,841563783,correct
P1,2.59E+14,s1,t1,trial,s1_38_t1lt2lt3r,680837576,correct
P1,2.59E+14,s1,t1,trial,s1_33_t1rt2lt3r,1106557573,correct
P1,2.59E+14,s1,t1,trial,s1_13_t1rt2rt3r,1462405540,correct
P1,2.59E+14,s1,t1,trial,s1_17_t1lt2rt3r,2194480552,correct
P1,2.59E+14,s1,t2,practice,s1_12_t1rt2rt3r,3138593831,correct
P1,2.59E+14,s1,t2,practice,s1_32_t1rt2lt3r,7298803837,correct
P1,2.59E+14,s1,t2,practice,s1_8_t1lt2rt3l,2151873946,correct
P1,2.59E+14,s1,t2,practice,s1_16_t1lt2rt3r,1436886974,correct
P1,2.59E+14,s1,t2,practice,s1_0_t1rt2rt3l,2873130315,correct
P1,2.59E+14,s1,t2,practice,s1_4_t1rt2rt3l,1264581043,correct
P1,2.59E+14,s1,t2,practice,s1_24_t1rt2lt3l,1312892845,correct
P1,2.59E+14,s1,t2,practice,s1_28_t1lt2lt3l,942434475,correct
P1,2.59E+14,s1,t2,practice,s1_20_t1rt2lt3l,962488411,correct
P1,2.59E+14,s1,t2,practice,s1_36_t1lt2lt3r,808328241,correct
P1,2.59E+14,s1,t2,practice,s1_0_t1rt2rt3l,871726486,correct
P1,2.59E+14,s1,t2,practice,s1_8_t1lt2rt3l,920437748,correct
P1,2.59E+14,s1,t2,practice,s1_28_t1lt2lt3l,826347514,correct
P1,2.59E+14,s1,t2,practice,s1_12_t1rt2rt3r,632225798,correct
P1,2.59E+14,s1,t2,practice,s1_24_t1rt2lt3l,785190389,correct
P1,2.59E+14,s1,t2,trial,s1_2_t1rt2rt3l,1282073880,correct
P1,2.59E+14,s1,t2,trial,s1_9_t1lt2rt3l,1020667682,correct
P1,2.59E+14,s1,t2,trial,s1_39_t1lt2lt3r,829570906,correct
P1,2.59E+14,s1,t2,trial,s1_23_t1rt2lt3l,610014223,correct
P1,2.59E+14,s1,t2,trial,s1_6_t1lt2rt3l,692190708,correct
P1,2.59E+14,s1,t2,trial,s1_37_t1lt2lt3r,1384326436,correct
P1,2.59E+14,s1,t2,trial,s1_35_t1lt2lt3r,706031400,correct
P1,2.59E+14,s1,t2,trial,s1_15_t1lt2rt3r,753730050,correct
P1,2.59E+14,s1,t2,trial,s1_34_t1rt2lt3r,704520737,correct
P1,2.59E+14,s1,t2,trial,s1_22_t1rt2lt3l,943434140,correct
P1,2.59E+14,s1,t2,trial,s1_19_t1lt2rt3r,2166435031,correct
P1,2.59E+14,s1,t2,trial,s1_30_t1rt2lt3r,675258589,correct
P1,2.59E+14,s1,t2,trial,s1_21_t1rt2lt3l,640828568,correct
P1,2.59E+14,s1,t2,trial,s1_18_t1lt2rt3r,1474625900,correct
P1,2.59E+14,s1,t2,trial,s1_10_t1rt2rt3r,887459124,correct
P1,2.59E+14,s1,t2,trial,s1_29_t1lt2lt3l,603102405,correct
P1,2.59E+14,s1,t2,trial,s1_31_t1rt2lt3r,768152563,correct
P1,2.59E+14,s1,t2,trial,s1_5_t1lt2rt3l,798281366,correct
P1,2.59E+14,s1,t2,trial,s1_7_t1lt2rt3l,640250760,correct
P1,2.59E+14,s1,t2,trial,s1_3_t1rt2rt3l,892171199,correct
P1,2.59E+14,s1,t2,trial,s1_27_t1lt2lt3l,685188536,correct
P1,2.59E+14,s1,t2,trial,s1_11_t1rt2rt3r,689856976,correct
P1,2.59E+14,s1,t2,trial,s1_14_t1rt2rt3r,626157193,correct
P1,2.59E+14,s1,t2,trial,s1_1_t1rt2rt3l,357280472,correct
P1,2.59E+14,s1,t2,trial,s1_25_t1lt2lt3l,752807426,correct
P1,2.59E+14,s1,t2,trial,s1_26_t1lt2lt3l,795955921,correct
P1,2.59E+14,s1,t2,trial,s1_38_t1lt2lt3r,800501586,correct
P1,2.59E+14,s1,t2,trial,s1_33_t1rt2lt3r,521797389,correct
P1,2.59E+14,s1,t2,trial,s1_13_t1rt2rt3r,810033991,correct
P1,2.59E+14,s1,t2,trial,s1_17_t1lt2rt3r,627699881,correct
P1,2.59E+14,s1,t3,practice,s1_12_t1rt2rt3r,2360446527,correct
P1,2.59E+14,s1,t3,practice,s1_32_t1rt2lt3r,1752335121,correct
P1,2.59E+14,s1,t3,practice,s1_8_t1lt2rt3l,2341318995,correct
P1,2.59E+14,s1,t3,practice,s1_16_t1lt2rt3r,1566485986,correct
P1,2.59E+14,s1,t3,practice,s1_0_t1rt2rt3l,2398484756,correct
P1,2.59E+14,s1,t3,practice,s1_4_t1rt2rt3l,3372788867,correct
P1,2.59E+14,s1,t3,practice,s1_24_t1rt2lt3l,2298272927,correct
P1,2.59E+14,s1,t3,practice,s1_28_t1lt2lt3l,1470109342,correct
P1,2.59E+14,s1,t3,practice,s1_20_t1rt2lt3l,1784190076,correct
P1,2.59E+14,s1,t3,practice,s1_36_t1lt2lt3r,868880026,correct
P1,2.59E+14,s1,t3,practice,s1_0_t1rt2rt3l,1137572399,correct
P1,2.59E+14,s1,t3,practice,s1_8_t1lt2rt3l,1482931688,correct
P1,2.59E+14,s1,t3,practice,s1_28_t1lt2lt3l,2019181302,correct
P1,2.59E+14,s1,t3,practice,s1_12_t1rt2rt3r,1179373575,correct
P1,2.59E+14,s1,t3,practice,s1_24_t1rt2lt3l,3373377042,correct
P1,2.59E+14,s1,t3,trial,s1_2_t1rt2rt3l,5237106332,correct
P1,2.59E+14,s1,t3,trial,s1_9_t1lt2rt3l,2972148655,correct
P1,2.59E+14,s1,t3,trial,s1_39_t1lt2lt3r,1694463587,correct
P1,2.59E+14,s1,t3,trial,s1_23_t1rt2lt3l,5529030626,correct
P1,2.59E+14,s1,t3,trial,s1_6_t1lt2rt3l,1677044603,correct
P1,2.59E+14,s1,t3,trial,s1_37_t1lt2lt3r,969646305,correct
P1,2.59E+14,s1,t3,trial,s1_35_t1lt2lt3r,737624558,correct
P1,2.59E+14,s1,t3,trial,s1_15_t1lt2rt3r,1002761824,correct
P1,2.59E+14,s1,t3,trial,s1_34_t1rt2lt3r,975346110,correct
P1,2.59E+14,s1,t3,trial,s1_22_t1rt2lt3l,5623801363,correct
P1,2.59E+14,s1,t3,trial,s1_19_t1lt2rt3r,1031700577,correct
P1,2.59E+14,s1,t3,trial,s1_30_t1rt2lt3r,901572505,correct
P1,2.59E+14,s1,t3,trial,s1_21_t1rt2lt3l,1390449950,correct
P1,2.59E+14,s1,t3,trial,s1_18_t1lt2rt3r,1047903183,correct
P1,2.59E+14,s1,t3,trial,s1_10_t1rt2rt3r,1664861857,correct
P1,2.59E+14,s1,t3,trial,s1_29_t1lt2lt3l,1492983088,correct
P1,2.59E+14,s1,t3,trial,s1_31_t1rt2lt3r,1063879292,correct
P1,2.59E+14,s1,t3,trial,s1_5_t1lt2rt3l,2529702372,correct
P1,2.59E+14,s1,t3,trial,s1_7_t1lt2rt3l,1601342840,correct
P1,2.59E+14,s1,t3,trial,s1_3_t1rt2rt3l,1044640987,correct
P1,2.59E+14,s1,t3,trial,s1_27_t1lt2lt3l,1425147304,correct
P1,2.59E+14,s1,t3,trial,s1_11_t1rt2rt3r,1117538357,correct
P1,2.59E+14,s1,t3,trial,s1_14_t1rt2rt3r,1760483793,correct
P1,2.59E+14,s1,t3,trial,s1_1_t1rt2rt3l,1345498433,correct
P1,2.59E+14,s1,t3,trial,s1_25_t1lt2lt3l,2348573821,correct
P1,2.59E+14,s1,t3,trial,s1_26_t1lt2lt3l,738347221,correct
P1,2.59E+14,s1,t3,trial,s1_38_t1lt2lt3r,1137467911,correct
P1,2.59E+14,s1,t3,trial,s1_33_t1rt2lt3r,1177403323,correct
P1,2.59E+14,s1,t3,trial,s1_13_t1rt2rt3r,1004739247,correct
P1,2.59E+14,s1,t3,trial,s1_17_t1lt2rt3r,1093552988,correct
P1,2.59E+14,s2,t1,practice,s2_52_t1rt2rt3r,4669146818,correct
P1,2.59E+14,s2,t1,practice,s2_72_t1rt2lt3r,2156596142,correct
P1,2.59E+14,s2,t1,practice,s2_48_t1lt2rt3l,856355475,correct
P1,2.59E+14,s2,t1,practice,s2_56_t1lt2rt3r,11402314187,correct
P1,2.59E+14,s2,t1,practice,s2_40_t1rt2rt3l,1153512143,correct
P1,2.59E+14,s2,t1,practice,s2_44_t1rt2rt3l,1078622980,correct
P1,2.59E+14,s2,t1,practice,s2_64_t1rt2lt3l,959757960,correct
P1,2.59E+14,s2,t1,practice,s2_68_t1lt2lt3l,820646062,correct
P1,2.59E+14,s2,t1,practice,s2_60_t1rt2lt3l,1096398357,correct
P1,2.59E+14,s2,t1,practice,s2_76_t1lt2lt3r,877170363,correct
P1,2.59E+14,s2,t1,practice,s2_40_t1rt2rt3l,522624291,correct
P1,2.59E+14,s2,t1,practice,s2_48_t1lt2rt3l,470538892,correct
P1,2.59E+14,s2,t1,practice,s2_68_t1lt2lt3l,992009079,correct
P1,2.59E+14,s2,t1,practice,s2_52_t1rt2rt3r,832594025,correct
P1,2.59E+14,s2,t1,practice,s2_64_t1rt2lt3l,813492004,correct
P1,2.59E+14,s2,t1,trial,s2_42_t1rt2rt3l,1209583814,correct
P1,2.59E+14,s2,t1,trial,s2_49_t1lt2rt3l,647207019,correct
P1,2.59E+14,s2,t1,trial,s2_79_t1lt2lt3r,639989137,correct
P1,2.59E+14,s2,t1,trial,s2_63_t1rt2lt3l,896357503,correct
P1,2.59E+14,s2,t1,trial,s2_46_t1lt2rt3l,653243600,correct
P1,2.59E+14,s2,t1,trial,s2_77_t1lt2lt3r,739866533,correct
P1,2.59E+14,s2,t1,trial,s2_75_t1lt2lt3r,875613801,correct
P1,2.59E+14,s2,t1,trial,s2_55_t1lt2rt3r,822409441,correct
P1,2.59E+14,s2,t1,trial,s2_74_t1rt2lt3r,1110584038,correct
P1,2.59E+14,s2,t1,trial,s2_62_t1rt2lt3l,1194098892,correct
P1,2.59E+14,s2,t1,trial,s2_59_t1lt2rt3r,1033102915,correct
P1,2.59E+14,s2,t1,trial,s2_70_t1rt2lt3r,981819050,correct
P1,2.59E+14,s2,t1,trial,s2_61_t1rt2lt3l,1184537913,correct
P1,2.59E+14,s2,t1,trial,s2_58_t1lt2rt3r,969328692,correct
P1,2.59E+14,s2,t1,trial,s2_50_t1rt2rt3r,1090727426,correct
P1,2.59E+14,s2,t1,trial,s2_69_t1lt2lt3l,867336919,correct
P1,2.59E+14,s2,t1,trial,s2_71_t1rt2lt3r,1068633650,error
P1,2.59E+14,s2,t1,trial,s2_45_t1lt2rt3l,962151334,correct
P1,2.59E+14,s2,t1,trial,s2_47_t1lt2rt3l,1296065070,correct
P1,2.59E+14,s2,t1,trial,s2_43_t1rt2rt3l,925930683,correct
P1,2.59E+14,s2,t1,trial,s2_67_t1lt2lt3l,792571119,correct
P1,2.59E+14,s2,t1,trial,s2_51_t1rt2rt3r,662924042,error
P1,2.59E+14,s2,t1,trial,s2_54_t1rt2rt3r,3718663631,correct
P1,2.59E+14,s2,t1,trial,s2_41_t1rt2rt3l,1633142194,correct
P1,2.59E+14,s2,t1,trial,s2_65_t1lt2lt3l,891286124,correct
P1,2.59E+14,s2,t1,trial,s2_66_t1lt2lt3l,632802441,correct
P1,2.59E+14,s2,t1,trial,s2_78_t1lt2lt3r,978648176,correct
P1,2.59E+14,s2,t1,trial,s2_73_t1rt2lt3r,341838597,correct
P1,2.59E+14,s2,t1,trial,s2_53_t1rt2rt3r,1551376874,correct
P1,2.59E+14,s2,t1,trial,s2_57_t1lt2rt3r,1272345871,correct
P1,2.59E+14,s2,t2,practice,s2_52_t1rt2rt3r,1540095254,correct
P1,2.59E+14,s2,t2,practice,s2_72_t1rt2lt3r,1923891314,correct
P1,2.59E+14,s2,t2,practice,s2_48_t1lt2rt3l,856154340,correct
P1,2.59E+14,s2,t2,practice,s2_56_t1lt2rt3r,852522546,correct
P1,2.59E+14,s2,t2,practice,s2_40_t1rt2rt3l,751657366,correct
P1,2.59E+14,s2,t2,practice,s2_44_t1rt2rt3l,669830258,correct
P1,2.59E+14,s2,t2,practice,s2_64_t1rt2lt3l,896496154,correct
P1,2.59E+14,s2,t2,practice,s2_68_t1lt2lt3l,827553044,correct
P1,2.59E+14,s2,t2,practice,s2_60_t1rt2lt3l,519846165,correct
P1,2.59E+14,s2,t2,practice,s2_76_t1lt2lt3r,909851076,correct
P1,2.59E+14,s2,t2,practice,s2_40_t1rt2rt3l,1345009922,correct
P1,2.59E+14,s2,t2,practice,s2_48_t1lt2rt3l,813674089,correct
P1,2.59E+14,s2,t2,practice,s2_68_t1lt2lt3l,637514975,correct
P1,2.59E+14,s2,t2,practice,s2_52_t1rt2rt3r,595080045,correct
P1,2.59E+14,s2,t2,practice,s2_64_t1rt2lt3l,676568952,correct
P1,2.59E+14,s2,t2,trial,s2_42_t1rt2rt3l,1028148797,correct
P1,2.59E+14,s2,t2,trial,s2_49_t1lt2rt3l,857717257,correct
P1,2.59E+14,s2,t2,trial,s2_79_t1lt2lt3r,570781152,correct
P1,2.59E+14,s2,t2,trial,s2_63_t1rt2lt3l,578848298,correct
P1,2.59E+14,s2,t2,trial,s2_46_t1lt2rt3l,590883338,correct
P1,2.59E+14,s2,t2,trial,s2_77_t1lt2lt3r,519436501,correct
P1,2.59E+14,s2,t2,trial,s2_75_t1lt2lt3r,550721921,correct
P1,2.59E+14,s2,t2,trial,s2_55_t1lt2rt3r,821856253,correct
P1,2.59E+14,s2,t2,trial,s2_74_t1rt2lt3r,550810913,correct
P1,2.59E+14,s2,t2,trial,s2_62_t1rt2lt3l,790259467,correct
P1,2.59E+14,s2,t2,trial,s2_59_t1lt2rt3r,466002050,correct
P1,2.59E+14,s2,t2,trial,s2_70_t1rt2lt3r,457453049,correct
P1,2.59E+14,s2,t2,trial,s2_61_t1rt2lt3l,499776681,correct
P1,2.59E+14,s2,t2,trial,s2_58_t1lt2rt3r,806760298,correct
P1,2.59E+14,s2,t2,trial,s2_50_t1rt2rt3r,2320037783,correct
P1,2.59E+14,s2,t2,trial,s2_69_t1lt2lt3l,773117056,correct
P1,2.59E+14,s2,t2,trial,s2_71_t1rt2lt3r,792569919,correct
P1,2.59E+14,s2,t2,trial,s2_45_t1lt2rt3l,853966101,correct
P1,2.59E+14,s2,t2,trial,s2_47_t1lt2rt3l,827658693,correct
P1,2.59E+14,s2,t2,trial,s2_43_t1rt2rt3l,1104344446,correct
P1,2.59E+14,s2,t2,trial,s2_67_t1lt2lt3l,893133721,correct
P1,2.59E+14,s2,t2,trial,s2_51_t1rt2rt3r,830122513,correct
P1,2.59E+14,s2,t2,trial,s2_54_t1rt2rt3r,623772910,correct
P1,2.59E+14,s2,t2,trial,s2_41_t1rt2rt3l,681669321,correct
P1,2.59E+14,s2,t2,trial,s2_65_t1lt2lt3l,670329920,correct
P1,2.59E+14,s2,t2,trial,s2_66_t1lt2lt3l,708936031,correct
P1,2.59E+14,s2,t2,trial,s2_78_t1lt2lt3r,565675532,correct
P1,2.59E+14,s2,t2,trial,s2_73_t1rt2lt3r,938233409,correct
P1,2.59E+14,s2,t2,trial,s2_53_t1rt2rt3r,735881178,correct
P1,2.59E+14,s2,t2,trial,s2_57_t1lt2rt3r,707002337,correct
P1,2.59E+14,s2,t3,practice,s2_52_t1rt2rt3r,2546942205,correct
P1,2.59E+14,s2,t3,practice,s2_72_t1rt2lt3r,1147671420,correct
P1,2.59E+14,s2,t3,practice,s2_48_t1lt2rt3l,3119257058,correct
P1,2.59E+14,s2,t3,practice,s2_56_t1lt2rt3r,856721440,correct
P1,2.59E+14,s2,t3,practice,s2_40_t1rt2rt3l,7044507620,error
P1,2.59E+14,s2,t3,practice,s2_44_t1rt2rt3l,2253613334,correct
P1,2.59E+14,s2,t3,practice,s2_64_t1rt2lt3l,2873548896,correct
P1,2.59E+14,s2,t3,practice,s2_68_t1lt2lt3l,1436503037,correct
P1,2.59E+14,s2,t3,practice,s2_60_t1rt2lt3l,2575847328,correct
P1,2.59E+14,s2,t3,practice,s2_76_t1lt2lt3r,787773284,correct
P1,2.59E+14,s2,t3,practice,s2_40_t1rt2rt3l,1114283075,correct
P1,2.59E+14,s2,t3,practice,s2_48_t1lt2rt3l,1077949065,correct
P1,2.59E+14,s2,t3,practice,s2_68_t1lt2lt3l,917482382,correct
P1,2.59E+14,s2,t3,practice,s2_52_t1rt2rt3r,988648575,correct
P1,2.59E+14,s2,t3,practice,s2_64_t1rt2lt3l,5384811879,error
P1,2.59E+14,s2,t3,trial,s2_42_t1rt2rt3l,2224581150,correct
P1,2.59E+14,s2,t3,trial,s2_49_t1lt2rt3l,1578677100,correct
P1,2.59E+14,s2,t3,trial,s2_79_t1lt2lt3r,950956539,correct
P1,2.59E+14,s2,t3,trial,s2_63_t1rt2lt3l,1280949768,correct
P1,2.59E+14,s2,t3,trial,s2_46_t1lt2rt3l,791031871,correct
P1,2.59E+14,s2,t3,trial,s2_77_t1lt2lt3r,825570576,correct
P1,2.59E+14,s2,t3,trial,s2_75_t1lt2lt3r,954827530,correct
P1,2.59E+14,s2,t3,trial,s2_55_t1lt2rt3r,927324178,correct
P1,2.59E+14,s2,t3,trial,s2_74_t1rt2lt3r,950250685,correct
P1,2.59E+14,s2,t3,trial,s2_62_t1rt2lt3l,2485262501,correct
P1,2.59E+14,s2,t3,trial,s2_59_t1lt2rt3r,1171471351,correct
P1,2.59E+14,s2,t3,trial,s2_70_t1rt2lt3r,1016820687,correct
P1,2.59E+14,s2,t3,trial,s2_61_t1rt2lt3l,1213571930,correct
P1,2.59E+14,s2,t3,trial,s2_58_t1lt2rt3r,1024217034,correct
P1,2.59E+14,s2,t3,trial,s2_50_t1rt2rt3r,688044386,correct
P1,2.59E+14,s2,t3,trial,s2_69_t1lt2lt3l,866406143,correct
P1,2.59E+14,s2,t3,trial,s2_71_t1rt2lt3r,1435158608,correct
P1,2.59E+14,s2,t3,trial,s2_45_t1lt2rt3l,863773015,correct
P1,2.59E+14,s2,t3,trial,s2_47_t1lt2rt3l,953743930,correct
P1,2.59E+14,s2,t3,trial,s2_43_t1rt2rt3l,1581847034,correct
P1,2.59E+14,s2,t3,trial,s2_67_t1lt2lt3l,833245517,correct
P1,2.59E+14,s2,t3,trial,s2_51_t1rt2rt3r,1038409060,correct
P1,2.59E+14,s2,t3,trial,s2_54_t1rt2rt3r,678251968,correct
P1,2.59E+14,s2,t3,trial,s2_41_t1rt2rt3l,757983637,correct
P1,2.59E+14,s2,t3,trial,s2_65_t1lt2lt3l,585251901,correct
P1,2.59E+14,s2,t3,trial,s2_66_t1lt2lt3l,599438080,correct
P1,2.59E+14,s2,t3,trial,s2_78_t1lt2lt3r,604764689,correct
P1,2.59E+14,s2,t3,trial,s2_73_t1rt2lt3r,655110415,correct
P1,2.59E+14,s2,t3,trial,s2_53_t1rt2rt3r,579229429,correct
P1,2.59E+14,s2,t3,trial,s2_57_t1lt2rt3r,847225756,correct
P1,2.59E+14,s3,t1,practice,s3_92_t1rt2rt3r,4908358566,correct
P1,2.59E+14,s3,t1,practice,s3_112_t1rt2lt3r,685842208,correct
P1,2.59E+14,s3,t1,practice,s3_88_t1lt2rt3l,705374768,correct
P1,2.59E+14,s3,t1,practice,s3_96_t1lt2rt3r,705075748,correct
P1,2.59E+14,s3,t1,practice,s3_80_t1rt2rt3l,817019758,correct
P1,2.59E+14,s3,t1,practice,s3_84_t1rt2rt3l,2255579031,correct
P1,2.59E+14,s3,t1,practice,s3_104_t1rt2lt3l,660153472,correct
P1,2.59E+14,s3,t1,practice,s3_108_t1lt2lt3l,642111984,correct
P1,2.59E+14,s3,t1,practice,s3_100_t1rt2lt3l,776631034,correct
P1,2.59E+14,s3,t1,practice,s3_116_t1lt2lt3r,881319042,correct
P1,2.59E+14,s3,t1,practice,s3_80_t1rt2rt3l,630649134,correct
P1,2.59E+14,s3,t1,practice,s3_88_t1lt2rt3l,608227923,correct
P1,2.59E+14,s3,t1,practice,s3_108_t1lt2lt3l,601563377,correct
P1,2.59E+14,s3,t1,practice,s3_92_t1rt2rt3r,1010314093,correct
P1,2.59E+14,s3,t1,practice,s3_104_t1rt2lt3l,680219674,correct
P1,2.59E+14,s3,t1,trial,s3_82_t1rt2rt3l,1008564681,correct
P1,2.59E+14,s3,t1,trial,s3_89_t1lt2rt3l,674737480,correct
P1,2.59E+14,s3,t1,trial,s3_119_t1lt2lt3r,930919591,correct
P1,2.59E+14,s3,t1,trial,s3_103_t1rt2lt3l,727607625,correct
P1,2.59E+14,s3,t1,trial,s3_86_t1lt2rt3l,614633484,correct
P1,2.59E+14,s3,t1,trial,s3_117_t1lt2lt3r,780946967,correct
P1,2.59E+14,s3,t1,trial,s3_115_t1lt2lt3r,535738000,correct
P1,2.59E+14,s3,t1,trial,s3_95_t1lt2rt3r,549106639,correct
P1,2.59E+14,s3,t1,trial,s3_114_t1rt2lt3r,607702273,correct
P1,2.59E+14,s3,t1,trial,s3_102_t1rt2lt3l,760914601,correct
P1,2.59E+14,s3,t1,trial,s3_99_t1lt2rt3r,537672966,correct
P1,2.59E+14,s3,t1,trial,s3_110_t1rt2lt3r,419576805,correct
P1,2.59E+14,s3,t1,trial,s3_101_t1rt2lt3l,1206673699,correct
P1,2.59E+14,s3,t1,trial,s3_98_t1lt2rt3r,783194041,correct
P1,2.59E+14,s3,t1,trial,s3_90_t1rt2rt3r,603175973,correct
P1,2.59E+14,s3,t1,trial,s3_109_t1lt2lt3l,786413131,correct
P1,2.59E+14,s3,t1,trial,s3_111_t1rt2lt3r,2000237726,correct
P1,2.59E+14,s3,t1,trial,s3_85_t1lt2rt3l,739936512,correct
P1,2.59E+14,s3,t1,trial,s3_87_t1lt2rt3l,533679209,correct
P1,2.59E+14,s3,t1,trial,s3_83_t1rt2rt3l,660377556,correct
P1,2.59E+14,s3,t1,trial,s3_107_t1lt2lt3l,628596894,correct
P1,2.59E+14,s3,t1,trial,s3_91_t1rt2rt3r,624535001,correct
P1,2.59E+14,s3,t1,trial,s3_94_t1rt2rt3r,690895161,correct
P1,2.59E+14,s3,t1,trial,s3_81_t1rt2rt3l,724517176,correct
P1,2.59E+14,s3,t1,trial,s3_105_t1lt2lt3l,659121464,correct
P1,2.59E+14,s3,t1,trial,s3_106_t1lt2lt3l,651130940,correct
P1,2.59E+14,s3,t1,trial,s3_118_t1lt2lt3r,587360339,correct
P1,2.59E+14,s3,t1,trial,s3_113_t1rt2lt3r,490584011,correct
P1,2.59E+14,s3,t1,trial,s3_93_t1rt2rt3r,1128647132,correct
P1,2.59E+14,s3,t1,trial,s3_97_t1lt2rt3r,489624231,correct
P1,2.59E+14,s3,t2,practice,s3_92_t1rt2rt3r,1359436286,correct
P1,2.59E+14,s3,t2,practice,s3_112_t1rt2lt3r,724248255,correct
P1,2.59E+14,s3,t2,practice,s3_88_t1lt2rt3l,751641975,correct
P1,2.59E+14,s3,t2,practice,s3_96_t1lt2rt3r,564110333,correct
P1,2.59E+14,s3,t2,practice,s3_80_t1rt2rt3l,802708094,correct
P1,2.59E+14,s3,t2,practice,s3_84_t1rt2rt3l,634345555,correct
P1,2.59E+14,s3,t2,practice,s3_104_t1rt2lt3l,551746388,correct
P1,2.59E+14,s3,t2,practice,s3_108_t1lt2lt3l,473683487,correct
P1,2.59E+14,s3,t2,practice,s3_100_t1rt2lt3l,583126931,correct
P1,2.59E+14,s3,t2,practice,s3_116_t1lt2lt3r,663318582,correct
P1,2.59E+14,s3,t2,practice,s3_80_t1rt2rt3l,575090139,correct
P1,2.59E+14,s3,t2,practice,s3_88_t1lt2rt3l,789365494,correct
P1,2.59E+14,s3,t2,practice,s3_108_t1lt2lt3l,782785662,correct
P1,2.59E+14,s3,t2,practice,s3_92_t1rt2rt3r,470999594,correct
P1,2.59E+14,s3,t2,practice,s3_104_t1rt2lt3l,387760292,correct
P1,2.59E+14,s3,t2,trial,s3_82_t1rt2rt3l,1091741786,correct
P1,2.59E+14,s3,t2,trial,s3_89_t1lt2rt3l,651517238,correct
P1,2.59E+14,s3,t2,trial,s3_119_t1lt2lt3r,654033123,correct
P1,2.59E+14,s3,t2,trial,s3_103_t1rt2lt3l,606686258,correct
P1,2.59E+14,s3,t2,trial,s3_86_t1lt2rt3l,859811088,correct
P1,2.59E+14,s3,t2,trial,s3_117_t1lt2lt3r,732023743,correct
P1,2.59E+14,s3,t2,trial,s3_115_t1lt2lt3r,618431113,correct
P1,2.59E+14,s3,t2,trial,s3_95_t1lt2rt3r,1713475277,correct
P1,2.59E+14,s3,t2,trial,s3_114_t1rt2lt3r,465394447,correct
P1,2.59E+14,s3,t2,trial,s3_102_t1rt2lt3l,1245306091,correct
P1,2.59E+14,s3,t2,trial,s3_99_t1lt2rt3r,1145096656,correct
P1,2.59E+14,s3,t2,trial,s3_110_t1rt2lt3r,575669140,correct
P1,2.59E+14,s3,t2,trial,s3_101_t1rt2lt3l,829760439,correct
P1,2.59E+14,s3,t2,trial,s3_98_t1lt2rt3r,952417571,correct
P1,2.59E+14,s3,t2,trial,s3_90_t1rt2rt3r,1706618820,correct
P1,2.59E+14,s3,t2,trial,s3_109_t1lt2lt3l,1500310344,correct
P1,2.59E+14,s3,t2,trial,s3_111_t1rt2lt3r,587256855,correct
P1,2.59E+14,s3,t2,trial,s3_85_t1lt2rt3l,978699437,correct
P1,2.59E+14,s3,t2,trial,s3_87_t1lt2rt3l,710453396,correct
P1,2.59E+14,s3,t2,trial,s3_83_t1rt2rt3l,1419601101,correct
P1,2.59E+14,s3,t2,trial,s3_107_t1lt2lt3l,875709175,correct
P1,2.59E+14,s3,t2,trial,s3_91_t1rt2rt3r,1059639620,correct
P1,2.59E+14,s3,t2,trial,s3_94_t1rt2rt3r,1026778425,correct
P1,2.59E+14,s3,t2,trial,s3_81_t1rt2rt3l,769529669,correct
P1,2.59E+14,s3,t2,trial,s3_105_t1lt2lt3l,609411513,correct
P1,2.59E+14,s3,t2,trial,s3_106_t1lt2lt3l,556262126,correct
P1,2.59E+14,s3,t2,trial,s3_118_t1lt2lt3r,555711897,correct
P1,2.59E+14,s3,t2,trial,s3_113_t1rt2lt3r,520558053,correct
P1,2.59E+14,s3,t2,trial,s3_93_t1rt2rt3r,564970308,correct
P1,2.59E+14,s3,t2,trial,s3_97_t1lt2rt3r,744116561,correct
P1,2.59E+14,s3,t3,practice,s3_92_t1rt2rt3r,1497202626,correct
P1,2.59E+14,s3,t3,practice,s3_112_t1rt2lt3r,613829192,correct
P1,2.59E+14,s3,t3,practice,s3_88_t1lt2rt3l,1202981387,correct
P1,2.59E+14,s3,t3,practice,s3_96_t1lt2rt3r,587513368,correct
P1,2.59E+14,s3,t3,practice,s3_80_t1rt2rt3l,662216126,correct
P1,2.59E+14,s3,t3,practice,s3_84_t1rt2rt3l,955714492,correct
P1,2.59E+14,s3,t3,practice,s3_104_t1rt2lt3l,1273931723,correct
P1,2.59E+14,s3,t3,practice,s3_108_t1lt2lt3l,1204653923,correct
P1,2.59E+14,s3,t3,practice,s3_100_t1rt2lt3l,1187380723,correct
P1,2.59E+14,s3,t3,practice,s3_116_t1lt2lt3r,774591489,correct
P1,2.59E+14,s3,t3,practice,s3_80_t1rt2rt3l,1978367805,correct
P1,2.59E+14,s3,t3,practice,s3_88_t1lt2rt3l,1561067608,correct
P1,2.59E+14,s3,t3,practice,s3_108_t1lt2lt3l,1132745149,correct
P1,2.59E+14,s3,t3,practice,s3_92_t1rt2rt3r,849414335,correct
P1,2.59E+14,s3,t3,practice,s3_104_t1rt2lt3l,1279592655,correct
P1,2.60E+14,s3,t3,trial,s3_82_t1rt2rt3l,1093093080,correct
P1,2.60E+14,s3,t3,trial,s3_89_t1lt2rt3l,999231150,correct
P1,2.60E+14,s3,t3,trial,s3_119_t1lt2lt3r,891640087,correct
P1,2.60E+14,s3,t3,trial,s3_103_t1rt2lt3l,913797030,correct
P1,2.60E+14,s3,t3,trial,s3_86_t1lt2rt3l,938226066,correct
P1,2.60E+14,s3,t3,trial,s3_117_t1lt2lt3r,747351971,correct
P1,2.60E+14,s3,t3,trial,s3_115_t1lt2lt3r,694199158,correct
P1,2.60E+14,s3,t3,trial,s3_95_t1lt2rt3r,564685074,correct
P1,2.60E+14,s3,t3,trial,s3_114_t1rt2lt3r,838346606,correct
P1,2.60E+14,s3,t3,trial,s3_102_t1rt2lt3l,974171081,correct
P1,2.60E+14,s3,t3,trial,s3_99_t1lt2rt3r,674332348,correct
P1,2.60E+14,s3,t3,trial,s3_110_t1rt2lt3r,671197011,correct
P1,2.60E+14,s3,t3,trial,s3_101_t1rt2lt3l,799379423,correct
P1,2.60E+14,s3,t3,trial,s3_98_t1lt2rt3r,669196787,correct
P1,2.60E+14,s3,t3,trial,s3_90_t1rt2rt3r,487242553,correct
P1,2.60E+14,s3,t3,trial,s3_109_t1lt2lt3l,1014327117,correct
P1,2.60E+14,s3,t3,trial,s3_111_t1rt2lt3r,713626711,correct
P1,2.60E+14,s3,t3,trial,s3_85_t1lt2rt3l,608227421,correct
P1,2.60E+14,s3,t3,trial,s3_87_t1lt2rt3l,731168516,correct
P1,2.60E+14,s3,t3,trial,s3_83_t1rt2rt3l,822485242,correct
P1,2.60E+14,s3,t3,trial,s3_107_t1lt2lt3l,810009250,correct
P1,2.60E+14,s3,t3,trial,s3_91_t1rt2rt3r,506394123,correct
P1,2.60E+14,s3,t3,trial,s3_94_t1rt2rt3r,586147269,correct
P1,2.60E+14,s3,t3,trial,s3_81_t1rt2rt3l,2102413860,correct
P1,2.60E+14,s3,t3,trial,s3_105_t1lt2lt3l,862882277,correct
P1,2.60E+14,s3,t3,trial,s3_106_t1lt2lt3l,625576441,correct
P1,2.60E+14,s3,t3,trial,s3_118_t1lt2lt3r,641043241,correct
P1,2.60E+14,s3,t3,trial,s3_113_t1rt2lt3r,816302072,correct
P1,2.60E+14,s3,t3,trial,s3_93_t1rt2rt3r,772750539,correct
P1,2.60E+14,s3,t3,trial,s3_97_t1lt2rt3r,706471794,correct
