participant,timestamp,chart,elements,trial,file,time,answer
P14,3.43019E+14,s2,t2,practice,s2_88_t1lt2rt3l,4873747281,error
P14,3.43025E+14,s2,t2,practice,s2_96_t1lt2rt3r,1413377537,error
P14,3.43028E+14,s2,t2,practice,s2_112_t1rt2lt3r,4819375600,correct
P14,3.43034E+14,s2,t2,practice,s2_80_t1rt2rt3l,2852264951,correct
P14,3.43039E+14,s2,t2,practice,s2_92_t1rt2rt3r,1294429018,correct
P14,3.43042E+14,s2,t2,practice,s2_108_t1lt2lt3l,1192720218,error
P14,3.43044E+14,s2,t2,practice,s2_116_t1lt2lt3r,1665736849,correct
P14,3.43047E+14,s2,t2,practice,s2_104_t1rt2lt3l,15457784018,correct
P14,3.43064E+14,s2,t2,practice,s2_84_t1rt2rt3l,1087926791,correct
P14,3.43066E+14,s2,t2,practice,s2_100_t1rt2lt3l,1675222852,error
P14,3.43069E+14,s2,t2,practice,s2_92_t1rt2rt3r,2761123746,correct
P14,3.43074E+14,s2,t2,practice,s2_112_t1rt2lt3r,2243143020,error
P14,3.43077E+14,s2,t2,practice,s2_104_t1rt2lt3l,1613594348,correct
P14,3.4308E+14,s2,t2,practice,s2_88_t1lt2rt3l,15222844819,correct
P14,3.43097E+14,s2,t2,practice,s2_116_t1lt2lt3r,1725823514,correct
P14,3.43109E+14,s2,t2,1,s2_101_t1rt2lt3l,1912439143,error
P14,3.43112E+14,s2,t2,2,s2_118_t1lt2lt3r,3161364350,correct
P14,3.43116E+14,s2,t2,3,s2_102_t1rt2lt3l,1625192384,correct
P14,3.43119E+14,s2,t2,4,s2_89_t1lt2rt3l,1583612114,correct
P14,3.43122E+14,s2,t2,5,s2_105_t1lt2lt3l,1832949784,correct
P14,3.43125E+14,s2,t2,6,s2_119_t1lt2lt3r,1528493330,correct
P14,3.43128E+14,s2,t2,7,s2_91_t1rt2rt3r,1048110123,correct
P14,3.4313E+14,s2,t2,8,s2_85_t1lt2rt3l,2292152129,error
P14,3.43134E+14,s2,t2,9,s2_111_t1rt2lt3r,1569918049,error
P14,3.43137E+14,s2,t2,10,s2_109_t1lt2lt3l,2255057968,correct
P14,3.4314E+14,s2,t2,11,s2_106_t1lt2lt3l,1304594330,correct
P14,3.43143E+14,s2,t2,12,s2_81_t1rt2rt3l,1823992449,correct
P14,3.43146E+14,s2,t2,13,s2_87_t1lt2rt3l,1020815688,correct
P14,3.43148E+14,s2,t2,14,s2_114_t1rt2lt3r,798917569,correct
P14,3.43151E+14,s2,t2,15,s2_110_t1rt2lt3r,1781969333,error
P14,3.43154E+14,s2,t2,16,s2_113_t1rt2lt3r,1594413003,correct
P14,3.43156E+14,s2,t2,17,s2_103_t1rt2lt3l,1297967697,correct
P14,3.43159E+14,s2,t2,18,s2_117_t1lt2lt3r,924887361,correct
P14,3.43161E+14,s2,t2,19,s2_95_t1lt2rt3r,895873070,error
P14,3.43164E+14,s2,t2,20,s2_98_t1lt2rt3r,1044774221,correct
P14,3.43166E+14,s2,t2,21,s2_94_t1rt2rt3r,535137017,correct
P14,3.43168E+14,s2,t2,22,s2_83_t1rt2rt3l,1294965293,correct
P14,3.43171E+14,s2,t2,23,s2_115_t1lt2lt3r,663862497,correct
P14,3.43173E+14,s2,t2,24,s2_86_t1lt2rt3l,1452551950,error
P14,3.43176E+14,s2,t2,25,s2_90_t1rt2rt3r,1353966085,correct
P14,3.43179E+14,s2,t2,26,s2_99_t1lt2rt3r,990077913,correct
P14,3.43181E+14,s2,t2,27,s2_97_t1lt2rt3r,592110878,correct
P14,3.43183E+14,s2,t2,28,s2_107_t1lt2lt3l,1074293419,correct
P14,3.43185E+14,s2,t2,29,s2_93_t1rt2rt3r,768601397,correct
P14,3.43187E+14,s2,t2,30,s2_82_t1rt2rt3l,1044140177,correct
P14,3.432E+14,s2,t3,practice,s2_88_t1lt2rt3l,1999854911,correct
P14,3.43203E+14,s2,t3,practice,s2_96_t1lt2rt3r,1066214707,correct
P14,3.43206E+14,s2,t3,practice,s2_112_t1rt2lt3r,1831205184,correct
P14,3.43209E+14,s2,t3,practice,s2_80_t1rt2rt3l,1338224339,correct
P14,3.43211E+14,s2,t3,practice,s2_92_t1rt2rt3r,1507475310,correct
P14,3.43214E+14,s2,t3,practice,s2_108_t1lt2lt3l,1371653289,correct
P14,3.43217E+14,s2,t3,practice,s2_116_t1lt2lt3r,2232259333,correct
P14,3.4322E+14,s2,t3,practice,s2_104_t1rt2lt3l,1488848525,correct
P14,3.43223E+14,s2,t3,practice,s2_84_t1rt2rt3l,1261994017,correct
P14,3.43226E+14,s2,t3,practice,s2_100_t1rt2lt3l,1335810798,correct
P14,3.43229E+14,s2,t3,practice,s2_92_t1rt2rt3r,1609572604,correct
P14,3.43232E+14,s2,t3,practice,s2_112_t1rt2lt3r,1271340292,correct
P14,3.43234E+14,s2,t3,practice,s2_104_t1rt2lt3l,1943840271,correct
P14,3.43237E+14,s2,t3,practice,s2_88_t1lt2rt3l,1289958350,correct
P14,3.4324E+14,s2,t3,practice,s2_116_t1lt2lt3r,1716123259,correct
P14,3.43252E+14,s2,t3,1,s2_101_t1rt2lt3l,1139350504,correct
P14,3.43255E+14,s2,t3,2,s2_118_t1lt2lt3r,947153473,correct
P14,3.43257E+14,s2,t3,3,s2_102_t1rt2lt3l,796169530,correct
P14,3.43259E+14,s2,t3,4,s2_89_t1lt2rt3l,1276323263,correct
P14,3.43262E+14,s2,t3,5,s2_105_t1lt2lt3l,1030879855,correct
P14,3.43264E+14,s2,t3,6,s2_119_t1lt2lt3r,1235954168,correct
P14,3.43266E+14,s2,t3,7,s2_91_t1rt2rt3r,1325092620,correct
P14,3.43269E+14,s2,t3,8,s2_85_t1lt2rt3l,889674069,correct
P14,3.43271E+14,s2,t3,9,s2_111_t1rt2lt3r,1405004881,correct
P14,3.43274E+14,s2,t3,10,s2_109_t1lt2lt3l,1064312412,correct
P14,3.43276E+14,s2,t3,11,s2_106_t1lt2lt3l,981274709,correct
P14,3.43278E+14,s2,t3,12,s2_81_t1rt2rt3l,1247775902,correct
P14,3.43281E+14,s2,t3,13,s2_87_t1lt2rt3l,1409693941,correct
P14,3.43284E+14,s2,t3,14,s2_114_t1rt2lt3r,958046219,correct
P14,3.43286E+14,s2,t3,15,s2_110_t1rt2lt3r,1184903853,correct
P14,3.43288E+14,s2,t3,16,s2_113_t1rt2lt3r,1362648500,correct
P14,3.43291E+14,s2,t3,17,s2_103_t1rt2lt3l,1407837065,correct
P14,3.43294E+14,s2,t3,18,s2_117_t1lt2lt3r,775817248,correct
P14,3.43297E+14,s2,t3,19,s2_95_t1lt2rt3r,1536326206,correct
P14,3.433E+14,s2,t3,20,s2_98_t1lt2rt3r,818849347,correct
P14,3.43302E+14,s2,t3,21,s2_94_t1rt2rt3r,1119581419,correct
P14,3.43304E+14,s2,t3,22,s2_83_t1rt2rt3l,1643871203,correct
P14,3.43307E+14,s2,t3,23,s2_115_t1lt2lt3r,2481797990,correct
P14,3.43311E+14,s2,t3,24,s2_86_t1lt2rt3l,1359803834,correct
P14,3.43314E+14,s2,t3,25,s2_90_t1rt2rt3r,1527440000,correct
P14,3.43316E+14,s2,t3,26,s2_99_t1lt2rt3r,1478498397,correct
P14,3.43319E+14,s2,t3,27,s2_97_t1lt2rt3r,1435791552,correct
P14,3.43322E+14,s2,t3,28,s2_107_t1lt2lt3l,1459492857,correct
P14,3.43325E+14,s2,t3,29,s2_93_t1rt2rt3r,936418764,correct
P14,3.43327E+14,s2,t3,30,s2_82_t1rt2rt3l,1372781382,correct
P14,3.43335E+14,s2,t1,practice,s2_88_t1lt2rt3l,1608581853,correct
P14,3.43338E+14,s2,t1,practice,s2_96_t1lt2rt3r,1241954691,correct
P14,3.43341E+14,s2,t1,practice,s2_112_t1rt2lt3r,1121837655,correct
P14,3.43343E+14,s2,t1,practice,s2_80_t1rt2rt3l,1594709294,correct
P14,3.43346E+14,s2,t1,practice,s2_92_t1rt2rt3r,1268311317,correct
P14,3.43349E+14,s2,t1,practice,s2_108_t1lt2lt3l,772793902,correct
P14,3.43351E+14,s2,t1,practice,s2_116_t1lt2lt3r,1164995511,error
P14,3.43354E+14,s2,t1,practice,s2_104_t1rt2lt3l,1332989126,correct
P14,3.43356E+14,s2,t1,practice,s2_84_t1rt2rt3l,974165281,correct
P14,3.43359E+14,s2,t1,practice,s2_100_t1rt2lt3l,742835913,correct
P14,3.43361E+14,s2,t1,practice,s2_92_t1rt2rt3r,1284736540,correct
P14,3.43363E+14,s2,t1,practice,s2_112_t1rt2lt3r,1292104523,correct
P14,3.43366E+14,s2,t1,practice,s2_104_t1rt2lt3l,972730433,correct
P14,3.43368E+14,s2,t1,practice,s2_88_t1lt2rt3l,1019286418,correct
P14,3.4337E+14,s2,t1,practice,s2_116_t1lt2lt3r,1352591572,correct
P14,3.43382E+14,s2,t1,1,s2_101_t1rt2lt3l,1154189282,correct
P14,3.43384E+14,s2,t1,2,s2_118_t1lt2lt3r,710383716,correct
P14,3.43386E+14,s2,t1,3,s2_102_t1rt2lt3l,971695755,correct
P14,3.43388E+14,s2,t1,4,s2_89_t1lt2rt3l,681168242,correct
P14,3.4339E+14,s2,t1,5,s2_105_t1lt2lt3l,1211309362,correct
P14,3.43393E+14,s2,t1,6,s2_119_t1lt2lt3r,1105519703,correct
P14,3.43395E+14,s2,t1,7,s2_91_t1rt2rt3r,1201276417,correct
P14,3.43398E+14,s2,t1,8,s2_85_t1lt2rt3l,1563189898,correct
P14,3.43401E+14,s2,t1,9,s2_111_t1rt2lt3r,1337601170,correct
P14,3.43403E+14,s2,t1,10,s2_109_t1lt2lt3l,1570731094,correct
P14,3.43406E+14,s2,t1,11,s2_106_t1lt2lt3l,1408238720,correct
P14,3.43409E+14,s2,t1,12,s2_81_t1rt2rt3l,889317235,correct
P14,3.43411E+14,s2,t1,13,s2_87_t1lt2rt3l,1157611703,error
P14,3.43413E+14,s2,t1,14,s2_114_t1rt2lt3r,1854763618,error
P14,3.43417E+14,s2,t1,15,s2_110_t1rt2lt3r,2002201442,correct
P14,3.4342E+14,s2,t1,16,s2_113_t1rt2lt3r,1717557607,correct
P14,3.43423E+14,s2,t1,17,s2_103_t1rt2lt3l,1543821441,correct
P14,3.43426E+14,s2,t1,18,s2_117_t1lt2lt3r,871454007,correct
P14,3.43428E+14,s2,t1,19,s2_95_t1lt2rt3r,1100064317,correct
P14,3.43431E+14,s2,t1,20,s2_98_t1lt2rt3r,1003791510,correct
P14,3.43433E+14,s2,t1,21,s2_94_t1rt2rt3r,983061289,correct
P14,3.43435E+14,s2,t1,22,s2_83_t1rt2rt3l,1365756029,correct
P14,3.43438E+14,s2,t1,23,s2_115_t1lt2lt3r,1469570525,correct
P14,3.43441E+14,s2,t1,24,s2_86_t1lt2rt3l,1288272614,correct
P14,3.43443E+14,s2,t1,25,s2_90_t1rt2rt3r,835294262,correct
P14,3.43445E+14,s2,t1,26,s2_99_t1lt2rt3r,1363017235,correct
P14,3.43448E+14,s2,t1,27,s2_97_t1lt2rt3r,1164022081,correct
P14,3.4345E+14,s2,t1,28,s2_107_t1lt2lt3l,1765454863,correct
P14,3.43454E+14,s2,t1,29,s2_93_t1rt2rt3r,1064464557,correct
P14,3.43456E+14,s2,t1,30,s2_82_t1rt2rt3l,1052793612,correct
P14,3.43466E+14,s3,t2,practice,s3_8_t1lt2rt3l,2851285255,correct
P14,3.4347E+14,s3,t2,practice,s3_16_t1lt2rt3r,1577709942,correct
P14,3.43473E+14,s3,t2,practice,s3_32_t1rt2lt3r,2578035776,correct
P14,3.43477E+14,s3,t2,practice,s3_0_t1rt2rt3l,2436683287,correct
P14,3.43481E+14,s3,t2,practice,s3_12_t1rt2rt3r,1051142164,correct
P14,3.43483E+14,s3,t2,practice,s3_28_t1lt2lt3l,1181957688,correct
P14,3.43486E+14,s3,t2,practice,s3_36_t1lt2lt3r,1327312664,error
P14,3.43489E+14,s3,t2,practice,s3_24_t1rt2lt3l,1354920231,correct
P14,3.43491E+14,s3,t2,practice,s3_4_t1rt2rt3l,1684562605,error
P14,3.43494E+14,s3,t2,practice,s3_20_t1rt2lt3l,1250779140,error
P14,3.43497E+14,s3,t2,practice,s3_12_t1rt2rt3r,1790762020,correct
P14,3.435E+14,s3,t2,practice,s3_32_t1rt2lt3r,1305173883,error
P14,3.43503E+14,s3,t2,practice,s3_24_t1rt2lt3l,1049259778,correct
P14,3.43505E+14,s3,t2,practice,s3_8_t1lt2rt3l,1653292431,error
P14,3.43508E+14,s3,t2,practice,s3_36_t1lt2lt3r,1643702493,error
P14,3.4352E+14,s3,t2,1,s3_21_t1rt2lt3l,1399871214,correct
P14,3.43523E+14,s3,t2,2,s3_38_t1lt2lt3r,912372627,correct
P14,3.43525E+14,s3,t2,3,s3_22_t1rt2lt3l,1888182974,correct
P14,3.43528E+14,s3,t2,4,s3_9_t1lt2rt3l,1545314554,correct
P14,3.43531E+14,s3,t2,5,s3_25_t1lt2lt3l,1622397964,correct
P14,3.43534E+14,s3,t2,6,s3_39_t1lt2lt3r,995296825,correct
P14,3.43536E+14,s3,t2,7,s3_11_t1rt2rt3r,822361048,correct
P14,3.43539E+14,s3,t2,8,s3_5_t1lt2rt3l,1192900273,correct
P14,3.43541E+14,s3,t2,9,s3_31_t1rt2lt3r,896442059,correct
P14,3.43543E+14,s3,t2,10,s3_29_t1lt2lt3l,1267649172,correct
P14,3.43546E+14,s3,t2,11,s3_26_t1lt2lt3l,974168963,correct
P14,3.43548E+14,s3,t2,12,s3_1_t1rt2rt3l,819127300,correct
P14,3.43551E+14,s3,t2,13,s3_7_t1lt2rt3l,938528895,correct
P14,3.43553E+14,s3,t2,14,s3_34_t1rt2lt3r,1210704206,correct
P14,3.43556E+14,s3,t2,15,s3_30_t1rt2lt3r,1479447936,correct
P14,3.43559E+14,s3,t2,16,s3_33_t1rt2lt3r,1220907690,correct
P14,3.43561E+14,s3,t2,17,s3_23_t1rt2lt3l,779433620,correct
P14,3.43563E+14,s3,t2,18,s3_37_t1lt2lt3r,1323000590,correct
P14,3.43566E+14,s3,t2,19,s3_15_t1lt2rt3r,1043454838,correct
P14,3.43568E+14,s3,t2,20,s3_18_t1lt2rt3r,1243294556,correct
P14,3.43571E+14,s3,t2,21,s3_14_t1rt2rt3r,733015797,correct
P14,3.43573E+14,s3,t2,22,s3_3_t1rt2rt3l,1925051323,correct
P14,3.43576E+14,s3,t2,23,s3_35_t1lt2lt3r,933214110,correct
P14,3.43578E+14,s3,t2,24,s3_6_t1lt2rt3l,840956575,correct
P14,3.4358E+14,s3,t2,25,s3_10_t1rt2rt3r,1661029944,correct
P14,3.43583E+14,s3,t2,26,s3_19_t1lt2rt3r,905083167,correct
P14,3.43585E+14,s3,t2,27,s3_17_t1lt2rt3r,1232994948,correct
P14,3.43588E+14,s3,t2,28,s3_27_t1lt2lt3l,1425553097,correct
P14,3.43591E+14,s3,t2,29,s3_13_t1rt2rt3r,1023751779,correct
P14,3.43593E+14,s3,t2,30,s3_2_t1rt2rt3l,953702640,correct
P14,3.43604E+14,s3,t3,practice,s3_8_t1lt2rt3l,3199325770,correct
P14,3.43609E+14,s3,t3,practice,s3_16_t1lt2rt3r,1315917471,correct
P14,3.43611E+14,s3,t3,practice,s3_32_t1rt2lt3r,1363993845,correct
P14,3.43614E+14,s3,t3,practice,s3_0_t1rt2rt3l,31589480119,correct
P14,3.43647E+14,s3,t3,practice,s3_12_t1rt2rt3r,1637338109,correct
P14,3.4365E+14,s3,t3,practice,s3_28_t1lt2lt3l,21820576095,correct
P14,3.43673E+14,s3,t3,practice,s3_36_t1lt2lt3r,1428607628,correct
P14,3.43676E+14,s3,t3,practice,s3_24_t1rt2lt3l,2380791034,error
P14,3.4368E+14,s3,t3,practice,s3_4_t1rt2rt3l,3044551898,error
P14,3.43684E+14,s3,t3,practice,s3_20_t1rt2lt3l,1447553471,correct
P14,3.43687E+14,s3,t3,practice,s3_12_t1rt2rt3r,1696400711,correct
P14,3.4369E+14,s3,t3,practice,s3_32_t1rt2lt3r,1489077366,correct
P14,3.43693E+14,s3,t3,practice,s3_24_t1rt2lt3l,1116675307,correct
P14,3.43695E+14,s3,t3,practice,s3_8_t1lt2rt3l,1553691340,correct
P14,3.43698E+14,s3,t3,practice,s3_36_t1lt2lt3r,982144635,correct
P14,3.43709E+14,s3,t3,1,s3_21_t1rt2lt3l,1060999239,correct
P14,3.43712E+14,s3,t3,2,s3_38_t1lt2lt3r,880995587,correct
P14,3.43714E+14,s3,t3,3,s3_22_t1rt2lt3l,917605923,correct
P14,3.43716E+14,s3,t3,4,s3_9_t1lt2rt3l,824991436,correct
P14,3.43718E+14,s3,t3,5,s3_25_t1lt2lt3l,684833891,correct
P14,3.4372E+14,s3,t3,6,s3_39_t1lt2lt3r,1021556849,correct
P14,3.43723E+14,s3,t3,7,s3_11_t1rt2rt3r,790959712,correct
P14,3.43725E+14,s3,t3,8,s3_5_t1lt2rt3l,850009337,correct
P14,3.43727E+14,s3,t3,9,s3_31_t1rt2lt3r,950053007,correct
P14,3.43729E+14,s3,t3,10,s3_29_t1lt2lt3l,775342200,correct
P14,3.43731E+14,s3,t3,11,s3_26_t1lt2lt3l,809753755,correct
P14,3.43733E+14,s3,t3,12,s3_1_t1rt2rt3l,1385833534,error
P14,3.43736E+14,s3,t3,13,s3_7_t1lt2rt3l,941539117,correct
P14,3.43738E+14,s3,t3,14,s3_34_t1rt2lt3r,996100643,correct
P14,3.43741E+14,s3,t3,15,s3_30_t1rt2lt3r,1584456064,correct
P14,3.43744E+14,s3,t3,16,s3_33_t1rt2lt3r,939598680,correct
P14,3.43746E+14,s3,t3,17,s3_23_t1rt2lt3l,930473438,correct
P14,3.43748E+14,s3,t3,18,s3_37_t1lt2lt3r,994521038,correct
P14,3.43751E+14,s3,t3,19,s3_15_t1lt2rt3r,906671485,correct
P14,3.43753E+14,s3,t3,20,s3_18_t1lt2rt3r,670449273,correct
P14,3.43755E+14,s3,t3,21,s3_14_t1rt2rt3r,614182469,correct
P14,3.43757E+14,s3,t3,22,s3_3_t1rt2rt3l,890929039,correct
P14,3.43759E+14,s3,t3,23,s3_35_t1lt2lt3r,1006794308,correct
P14,3.43761E+14,s3,t3,24,s3_6_t1lt2rt3l,1077799714,correct
P14,3.43764E+14,s3,t3,25,s3_10_t1rt2rt3r,1348792672,correct
P14,3.43766E+14,s3,t3,26,s3_19_t1lt2rt3r,849880187,correct
P14,3.43769E+14,s3,t3,27,s3_17_t1lt2rt3r,715565274,correct
P14,3.43771E+14,s3,t3,28,s3_27_t1lt2lt3l,807596684,correct
P14,3.43773E+14,s3,t3,29,s3_13_t1rt2rt3r,959497321,correct
P14,3.43775E+14,s3,t3,30,s3_2_t1rt2rt3l,1029224454,correct
P14,3.43782E+14,s3,t1,practice,s3_8_t1lt2rt3l,1517466295,correct
P14,3.43785E+14,s3,t1,practice,s3_16_t1lt2rt3r,1118582341,correct
P14,3.43788E+14,s3,t1,practice,s3_32_t1rt2lt3r,950848137,correct
P14,3.4379E+14,s3,t1,practice,s3_0_t1rt2rt3l,1131451031,error
P14,3.43792E+14,s3,t1,practice,s3_12_t1rt2rt3r,687667827,correct
P14,3.43794E+14,s3,t1,practice,s3_28_t1lt2lt3l,832101813,correct
P14,3.43796E+14,s3,t1,practice,s3_36_t1lt2lt3r,1056036648,error
P14,3.43799E+14,s3,t1,practice,s3_24_t1rt2lt3l,1061106542,correct
P14,3.43801E+14,s3,t1,practice,s3_4_t1rt2rt3l,1090433402,correct
P14,3.43803E+14,s3,t1,practice,s3_20_t1rt2lt3l,761814785,correct
P14,3.43806E+14,s3,t1,practice,s3_12_t1rt2rt3r,746459556,correct
P14,3.43808E+14,s3,t1,practice,s3_32_t1rt2lt3r,774941478,correct
P14,3.4381E+14,s3,t1,practice,s3_24_t1rt2lt3l,740068262,correct
P14,3.43812E+14,s3,t1,practice,s3_8_t1lt2rt3l,757207360,correct
P14,3.43814E+14,s3,t1,practice,s3_36_t1lt2lt3r,654302724,correct
P14,3.43825E+14,s3,t1,1,s3_21_t1rt2lt3l,1391245230,correct
P14,3.43828E+14,s3,t1,2,s3_38_t1lt2lt3r,830240571,correct
P14,3.4383E+14,s3,t1,3,s3_22_t1rt2lt3l,641601694,correct
P14,3.43832E+14,s3,t1,4,s3_9_t1lt2rt3l,671296860,correct
P14,3.43834E+14,s3,t1,5,s3_25_t1lt2lt3l,946005361,correct
P14,3.43836E+14,s3,t1,6,s3_39_t1lt2lt3r,1071599477,correct
P14,3.43838E+14,s3,t1,7,s3_11_t1rt2rt3r,1051678089,correct
P14,3.43841E+14,s3,t1,8,s3_5_t1lt2rt3l,715251295,correct
P14,3.43843E+14,s3,t1,9,s3_31_t1rt2lt3r,939750377,correct
P14,3.43845E+14,s3,t1,10,s3_29_t1lt2lt3l,800117390,correct
P14,3.43847E+14,s3,t1,11,s3_26_t1lt2lt3l,802448496,correct
P14,3.43849E+14,s3,t1,12,s3_1_t1rt2rt3l,738602249,correct
P14,3.43851E+14,s3,t1,13,s3_7_t1lt2rt3l,578554784,correct
P14,3.43853E+14,s3,t1,14,s3_34_t1rt2lt3r,783374242,correct
P14,3.43855E+14,s3,t1,15,s3_30_t1rt2lt3r,1062245269,correct
P14,3.43858E+14,s3,t1,16,s3_33_t1rt2lt3r,770220154,correct
P14,3.4386E+14,s3,t1,17,s3_23_t1rt2lt3l,629973587,correct
P14,3.43862E+14,s3,t1,18,s3_37_t1lt2lt3r,738451840,correct
P14,3.43864E+14,s3,t1,19,s3_15_t1lt2rt3r,597180266,correct
P14,3.43866E+14,s3,t1,20,s3_18_t1lt2rt3r,819641309,correct
P14,3.43868E+14,s3,t1,21,s3_14_t1rt2rt3r,372953424,correct
P14,3.4387E+14,s3,t1,22,s3_3_t1rt2rt3l,764802407,correct
P14,3.43873E+14,s3,t1,23,s3_35_t1lt2lt3r,862093849,correct
P14,3.43875E+14,s3,t1,24,s3_6_t1lt2rt3l,967584420,correct
P14,3.43877E+14,s3,t1,25,s3_10_t1rt2rt3r,892655111,correct
P14,3.43879E+14,s3,t1,26,s3_19_t1lt2rt3r,879743343,correct
P14,3.43881E+14,s3,t1,27,s3_17_t1lt2rt3r,983670422,correct
P14,3.43884E+14,s3,t1,28,s3_27_t1lt2lt3l,650688251,correct
P14,3.43885E+14,s3,t1,29,s3_13_t1rt2rt3r,1002282435,correct
P14,3.43888E+14,s3,t1,30,s3_2_t1rt2rt3l,622156129,correct
P14,3.43899E+14,s1,t2,practice,s1_48_t1lt2rt3l,2320575112,error
P14,3.43902E+14,s1,t2,practice,s1_56_t1lt2rt3r,1632864363,correct
P14,3.43905E+14,s1,t2,practice,s1_72_t1rt2lt3r,1286743219,correct
P14,3.43908E+14,s1,t2,practice,s1_40_t1rt2rt3l,924079973,correct
P14,3.4391E+14,s1,t2,practice,s1_52_t1rt2rt3r,1332601899,correct
P14,3.43912E+14,s1,t2,practice,s1_68_t1lt2lt3l,878294159,correct
P14,3.43915E+14,s1,t2,practice,s1_76_t1lt2lt3r,1656971282,error
P14,3.43918E+14,s1,t2,practice,s1_64_t1rt2lt3l,852258894,correct
P14,3.4392E+14,s1,t2,practice,s1_44_t1rt2rt3l,913847291,error
P14,3.43922E+14,s1,t2,practice,s1_60_t1rt2lt3l,4184246731,error
P14,3.43927E+14,s1,t2,practice,s1_52_t1rt2rt3r,1815633464,correct
P14,3.4393E+14,s1,t2,practice,s1_72_t1rt2lt3r,1335896259,correct
P14,3.43934E+14,s1,t2,practice,s1_64_t1rt2lt3l,1022848395,error
P14,3.43936E+14,s1,t2,practice,s1_48_t1lt2rt3l,1469113618,error
P14,3.43939E+14,s1,t2,practice,s1_76_t1lt2lt3r,6250141168,correct
P14,3.43955E+14,s1,t2,1,s1_61_t1rt2lt3l,1488644570,correct
P14,3.43958E+14,s1,t2,2,s1_78_t1lt2lt3r,727537309,correct
P14,3.4396E+14,s1,t2,3,s1_62_t1rt2lt3l,982570017,correct
P14,3.43962E+14,s1,t2,4,s1_49_t1lt2rt3l,949169232,correct
P14,3.43965E+14,s1,t2,5,s1_65_t1lt2lt3l,1139216320,correct
P14,3.43967E+14,s1,t2,6,s1_79_t1lt2lt3r,792967796,correct
P14,3.43969E+14,s1,t2,7,s1_51_t1rt2rt3r,518621328,correct
P14,3.43971E+14,s1,t2,8,s1_45_t1lt2rt3l,661220688,correct
P14,3.43973E+14,s1,t2,9,s1_71_t1rt2lt3r,892765737,error
P14,3.43975E+14,s1,t2,10,s1_69_t1lt2lt3l,997854633,correct
P14,3.43978E+14,s1,t2,11,s1_66_t1lt2lt3l,750544063,error
P14,3.4398E+14,s1,t2,12,s1_41_t1rt2rt3l,1050448016,correct
P14,3.43982E+14,s1,t2,13,s1_47_t1lt2rt3l,774651745,correct
P14,3.43984E+14,s1,t2,14,s1_74_t1rt2lt3r,725278007,correct
P14,3.43986E+14,s1,t2,15,s1_70_t1rt2lt3r,1055280278,correct
P14,3.43989E+14,s1,t2,16,s1_73_t1rt2lt3r,798267657,correct
P14,3.43991E+14,s1,t2,17,s1_63_t1rt2lt3l,954194567,correct
P14,3.43993E+14,s1,t2,18,s1_77_t1lt2lt3r,874021728,error
P14,3.43995E+14,s1,t2,19,s1_55_t1lt2rt3r,635961420,correct
P14,3.43998E+14,s1,t2,20,s1_58_t1lt2rt3r,636285064,correct
P14,3.44E+14,s1,t2,21,s1_54_t1rt2rt3r,753758739,correct
P14,3.44002E+14,s1,t2,22,s1_43_t1rt2rt3l,729146196,correct
P14,3.44004E+14,s1,t2,23,s1_75_t1lt2lt3r,651426233,correct
P14,3.44006E+14,s1,t2,24,s1_46_t1lt2rt3l,709120259,correct
P14,3.44008E+14,s1,t2,25,s1_50_t1rt2rt3r,1088285555,correct
P14,3.44011E+14,s1,t2,26,s1_59_t1lt2rt3r,842252601,correct
P14,3.44013E+14,s1,t2,27,s1_57_t1lt2rt3r,607495814,correct
P14,3.44015E+14,s1,t2,28,s1_67_t1lt2lt3l,1150072663,correct
P14,3.44018E+14,s1,t2,29,s1_53_t1rt2rt3r,663137775,correct
P14,3.4402E+14,s1,t2,30,s1_42_t1rt2rt3l,721178947,correct
P14,3.44034E+14,s1,t3,practice,s1_48_t1lt2rt3l,1053673371,correct
P14,3.44036E+14,s1,t3,practice,s1_56_t1lt2rt3r,1095735895,correct
P14,3.44038E+14,s1,t3,practice,s1_72_t1rt2lt3r,757852234,correct
P14,3.4404E+14,s1,t3,practice,s1_40_t1rt2rt3l,857070353,correct
P14,3.44043E+14,s1,t3,practice,s1_52_t1rt2rt3r,992839714,correct
P14,3.44045E+14,s1,t3,practice,s1_68_t1lt2lt3l,759581403,correct
P14,3.44047E+14,s1,t3,practice,s1_76_t1lt2lt3r,950540766,correct
P14,3.44049E+14,s1,t3,practice,s1_64_t1rt2lt3l,796397769,correct
P14,3.44051E+14,s1,t3,practice,s1_44_t1rt2rt3l,1115744834,correct
P14,3.44054E+14,s1,t3,practice,s1_60_t1rt2lt3l,694108522,correct
P14,3.44056E+14,s1,t3,practice,s1_52_t1rt2rt3r,1493510678,correct
P14,3.44059E+14,s1,t3,practice,s1_72_t1rt2lt3r,1026319379,correct
P14,3.44061E+14,s1,t3,practice,s1_64_t1rt2lt3l,826899748,correct
P14,3.44063E+14,s1,t3,practice,s1_48_t1lt2rt3l,976818775,correct
P14,3.44066E+14,s1,t3,practice,s1_76_t1lt2lt3r,1066151471,correct
P14,3.44077E+14,s1,t3,1,s1_61_t1rt2lt3l,1552778722,correct
P14,3.4408E+14,s1,t3,2,s1_78_t1lt2lt3r,359276524,correct
P14,3.44083E+14,s1,t3,3,s1_62_t1rt2lt3l,1013792013,error
P14,3.44086E+14,s1,t3,4,s1_49_t1lt2rt3l,1597773010,correct
P14,3.44089E+14,s1,t3,5,s1_65_t1lt2lt3l,807474965,correct
P14,3.44091E+14,s1,t3,6,s1_79_t1lt2lt3r,1033589632,correct
P14,3.44093E+14,s1,t3,7,s1_51_t1rt2rt3r,832987639,correct
P14,3.44095E+14,s1,t3,8,s1_45_t1lt2rt3l,976368884,correct
P14,3.44098E+14,s1,t3,9,s1_71_t1rt2lt3r,696194577,correct
P14,3.441E+14,s1,t3,10,s1_69_t1lt2lt3l,1048540756,correct
P14,3.44102E+14,s1,t3,11,s1_66_t1lt2lt3l,811382136,correct
P14,3.44105E+14,s1,t3,12,s1_41_t1rt2rt3l,1686124031,correct
P14,3.44108E+14,s1,t3,13,s1_47_t1lt2rt3l,677382739,correct
P14,3.4411E+14,s1,t3,14,s1_74_t1rt2lt3r,973265326,correct
P14,3.44112E+14,s1,t3,15,s1_70_t1rt2lt3r,936882226,correct
P14,3.44114E+14,s1,t3,16,s1_73_t1rt2lt3r,748150845,correct
P14,3.44116E+14,s1,t3,17,s1_63_t1rt2lt3l,808536974,correct
P14,3.44118E+14,s1,t3,18,s1_77_t1lt2lt3r,716456439,correct
P14,3.44121E+14,s1,t3,19,s1_55_t1lt2rt3r,1053415681,correct
P14,3.44123E+14,s1,t3,20,s1_58_t1lt2rt3r,655847639,correct
P14,3.44126E+14,s1,t3,21,s1_54_t1rt2rt3r,619910201,correct
P14,3.44128E+14,s1,t3,22,s1_43_t1rt2rt3l,1667193751,error
P14,3.44131E+14,s1,t3,23,s1_75_t1lt2lt3r,1983788646,error
P14,3.44134E+14,s1,t3,24,s1_46_t1lt2rt3l,1653428618,correct
P14,3.44137E+14,s1,t3,25,s1_50_t1rt2rt3r,771669138,correct
P14,3.44141E+14,s1,t3,26,s1_59_t1lt2rt3r,952702108,correct
P14,3.44143E+14,s1,t3,27,s1_57_t1lt2rt3r,879122557,correct
P14,3.44145E+14,s1,t3,28,s1_67_t1lt2lt3l,1175815326,correct
P14,3.44148E+14,s1,t3,29,s1_53_t1rt2rt3r,628821208,correct
P14,3.4415E+14,s1,t3,30,s1_42_t1rt2rt3l,837102493,error
P14,3.44156E+14,s1,t1,practice,s1_48_t1lt2rt3l,1429456296,correct
P14,3.44159E+14,s1,t1,practice,s1_56_t1lt2rt3r,1473295264,correct
P14,3.44162E+14,s1,t1,practice,s1_72_t1rt2lt3r,721350822,correct
P14,3.44164E+14,s1,t1,practice,s1_40_t1rt2rt3l,741031087,correct
P14,3.44166E+14,s1,t1,practice,s1_52_t1rt2rt3r,1343544728,error
P14,3.44168E+14,s1,t1,practice,s1_68_t1lt2lt3l,1019535066,correct
P14,3.44171E+14,s1,t1,practice,s1_76_t1lt2lt3r,799126391,correct
P14,3.44173E+14,s1,t1,practice,s1_64_t1rt2lt3l,786252591,correct
P14,3.44175E+14,s1,t1,practice,s1_44_t1rt2rt3l,1298349351,correct
P14,3.44178E+14,s1,t1,practice,s1_60_t1rt2lt3l,651492243,correct
P14,3.4418E+14,s1,t1,practice,s1_52_t1rt2rt3r,862686111,correct
P14,3.44182E+14,s1,t1,practice,s1_72_t1rt2lt3r,778878294,correct
P14,3.44184E+14,s1,t1,practice,s1_64_t1rt2lt3l,583830150,correct
P14,3.44186E+14,s1,t1,practice,s1_48_t1lt2rt3l,917193555,correct
P14,3.44189E+14,s1,t1,practice,s1_76_t1lt2lt3r,377175135,correct
P14,3.442E+14,s1,t1,1,s1_61_t1rt2lt3l,699137545,correct
P14,3.44202E+14,s1,t1,2,s1_78_t1lt2lt3r,825302287,correct
P14,3.44204E+14,s1,t1,3,s1_62_t1rt2lt3l,677550906,correct
P14,3.44206E+14,s1,t1,4,s1_49_t1lt2rt3l,817603134,correct
P14,3.44208E+14,s1,t1,5,s1_65_t1lt2lt3l,679641890,correct
P14,3.4421E+14,s1,t1,6,s1_79_t1lt2lt3r,772124083,correct
P14,3.44212E+14,s1,t1,7,s1_51_t1rt2rt3r,759342358,correct
P14,3.44214E+14,s1,t1,8,s1_45_t1lt2rt3l,629368939,correct
P14,3.44216E+14,s1,t1,9,s1_71_t1rt2lt3r,663495462,correct
P14,3.44218E+14,s1,t1,10,s1_69_t1lt2lt3l,675390067,correct
P14,3.4422E+14,s1,t1,11,s1_66_t1lt2lt3l,685754019,correct
P14,3.44222E+14,s1,t1,12,s1_41_t1rt2rt3l,975688915,correct
P14,3.44225E+14,s1,t1,13,s1_47_t1lt2rt3l,1147024895,correct
P14,3.44227E+14,s1,t1,14,s1_74_t1rt2lt3r,866204894,correct
P14,3.44229E+14,s1,t1,15,s1_70_t1rt2lt3r,804848417,correct
P14,3.44231E+14,s1,t1,16,s1_73_t1rt2lt3r,693808279,correct
P14,3.44233E+14,s1,t1,17,s1_63_t1rt2lt3l,1133638581,correct
P14,3.44236E+14,s1,t1,18,s1_77_t1lt2lt3r,795485041,correct
P14,3.44238E+14,s1,t1,19,s1_55_t1lt2rt3r,864928180,correct
P14,3.4424E+14,s1,t1,20,s1_58_t1lt2rt3r,844203181,correct
P14,3.44242E+14,s1,t1,21,s1_54_t1rt2rt3r,1137500947,correct
P14,3.44245E+14,s1,t1,22,s1_43_t1rt2rt3l,572320067,correct
P14,3.44247E+14,s1,t1,23,s1_75_t1lt2lt3r,633140368,correct
P14,3.44249E+14,s1,t1,24,s1_46_t1lt2rt3l,885849627,correct
P14,3.44251E+14,s1,t1,25,s1_50_t1rt2rt3r,805600591,correct
P14,3.44254E+14,s1,t1,26,s1_59_t1lt2rt3r,1117107194,correct
P14,3.44256E+14,s1,t1,27,s1_57_t1lt2rt3r,954540845,correct
P14,3.44259E+14,s1,t1,28,s1_67_t1lt2lt3l,1241702082,correct
P14,3.44262E+14,s1,t1,29,s1_53_t1rt2rt3r,707371341,correct
P14,3.44263E+14,s1,t1,30,s1_42_t1rt2rt3l,882504391,correct