participant,timestamp,chart,elements,trial,file,time,answer
P17,3.76785E+14,s3,t1,practice,s3_8_t1lt2rt3l,3272006097,correct
P17,3.76789E+14,s3,t1,practice,s3_36_t1lt2lt3r,1908411617,correct
P17,3.76792E+14,s3,t1,practice,s3_12_t1rt2rt3r,1857554565,correct
P17,3.76795E+14,s3,t1,practice,s3_16_t1lt2rt3r,1551791574,correct
P17,3.76798E+14,s3,t1,practice,s3_32_t1rt2lt3r,1021555159,correct
P17,3.76801E+14,s3,t1,practice,s3_0_t1rt2rt3l,1249544235,correct
P17,3.76803E+14,s3,t1,practice,s3_28_t1lt2lt3l,959689533,correct
P17,3.76807E+14,s3,t1,practice,s3_24_t1rt2lt3l,1166302175,correct
P17,3.76809E+14,s3,t1,practice,s3_4_t1rt2rt3l,923279590,correct
P17,3.76811E+14,s3,t1,practice,s3_20_t1rt2lt3l,957594161,correct
P17,3.76813E+14,s3,t1,practice,s3_32_t1rt2lt3r,1001596015,correct
P17,3.76816E+14,s3,t1,practice,s3_12_t1rt2rt3r,971839859,correct
P17,3.76818E+14,s3,t1,practice,s3_24_t1rt2lt3l,1390999208,correct
P17,3.7682E+14,s3,t1,practice,s3_8_t1lt2rt3l,1197785616,correct
P17,3.76823E+14,s3,t1,practice,s3_28_t1lt2lt3l,921062914,correct
P17,3.76834E+14,s3,t1,1,s3_15_t1lt2rt3r,2608588336,correct
P17,3.76838E+14,s3,t1,2,s3_18_t1lt2rt3r,1202014113,correct
P17,3.76841E+14,s3,t1,3,s3_34_t1rt2lt3r,1185479359,correct
P17,3.76843E+14,s3,t1,4,s3_30_t1rt2lt3r,1681367830,correct
P17,3.76846E+14,s3,t1,5,s3_5_t1lt2rt3l,956992555,correct
P17,3.76849E+14,s3,t1,6,s3_10_t1rt2rt3r,836345117,correct
P17,3.76851E+14,s3,t1,7,s3_35_t1lt2lt3r,1009974500,correct
P17,3.76853E+14,s3,t1,8,s3_23_t1rt2lt3l,609733686,correct
P17,3.76855E+14,s3,t1,9,s3_22_t1rt2lt3l,517867223,correct
P17,3.76857E+14,s3,t1,10,s3_31_t1rt2lt3r,643927845,correct
P17,3.76859E+14,s3,t1,11,s3_29_t1lt2lt3l,817777216,correct
P17,3.76861E+14,s3,t1,12,s3_1_t1rt2rt3l,752667118,correct
P17,3.76863E+14,s3,t1,13,s3_37_t1lt2lt3r,880632436,correct
P17,3.76867E+14,s3,t1,14,s3_33_t1rt2lt3r,983898766,correct
P17,3.76869E+14,s3,t1,15,s3_39_t1lt2lt3r,1266903685,correct
P17,3.76872E+14,s3,t1,16,s3_25_t1lt2lt3l,818362166,correct
P17,3.76874E+14,s3,t1,17,s3_7_t1lt2rt3l,742097042,correct
P17,3.76876E+14,s3,t1,18,s3_26_t1lt2lt3l,596726502,correct
P17,3.76878E+14,s3,t1,19,s3_11_t1rt2rt3r,991933156,correct
P17,3.7688E+14,s3,t1,20,s3_6_t1lt2rt3l,662032020,correct
P17,3.76882E+14,s3,t1,21,s3_21_t1rt2lt3l,783417132,correct
P17,3.76884E+14,s3,t1,22,s3_9_t1lt2rt3l,964900883,correct
P17,3.76886E+14,s3,t1,23,s3_2_t1rt2rt3l,939064953,correct
P17,3.76889E+14,s3,t1,24,s3_38_t1lt2lt3r,891201617,correct
P17,3.76892E+14,s3,t1,25,s3_19_t1lt2rt3r,1007880993,correct
P17,3.76895E+14,s3,t1,26,s3_17_t1lt2rt3r,1191702401,correct
P17,3.76897E+14,s3,t1,27,s3_14_t1rt2rt3r,1026815328,error
P17,3.76899E+14,s3,t1,28,s3_13_t1rt2rt3r,1656213452,correct
P17,3.76902E+14,s3,t1,29,s3_27_t1lt2lt3l,730935114,correct
P17,3.76904E+14,s3,t1,30,s3_3_t1rt2rt3l,879878596,correct
P17,3.76921E+14,s3,t2,practice,s3_8_t1lt2rt3l,13689402842,correct
P17,3.76936E+14,s3,t2,practice,s3_36_t1lt2lt3r,3225832950,correct
P17,3.7694E+14,s3,t2,practice,s3_12_t1rt2rt3r,2193960298,correct
P17,3.76943E+14,s3,t2,practice,s3_16_t1lt2rt3r,1562465330,correct
P17,3.76946E+14,s3,t2,practice,s3_32_t1rt2lt3r,3589585604,correct
P17,3.76951E+14,s3,t2,practice,s3_0_t1rt2rt3l,2450375142,correct
P17,3.76956E+14,s3,t2,practice,s3_28_t1lt2lt3l,6265867903,correct
P17,3.76963E+14,s3,t2,practice,s3_24_t1rt2lt3l,2360767483,correct
P17,3.76967E+14,s3,t2,practice,s3_4_t1rt2rt3l,2067725597,correct
P17,3.7697E+14,s3,t2,practice,s3_20_t1rt2lt3l,2134203906,correct
P17,3.76973E+14,s3,t2,practice,s3_32_t1rt2lt3r,4078436367,correct
P17,3.76979E+14,s3,t2,practice,s3_12_t1rt2rt3r,5506943959,correct
P17,3.76987E+14,s3,t2,practice,s3_24_t1rt2lt3l,4583590113,correct
P17,3.76992E+14,s3,t2,practice,s3_8_t1lt2rt3l,2298749345,correct
P17,3.76996E+14,s3,t2,practice,s3_28_t1lt2lt3l,4001556364,error
P17,3.7701E+14,s3,t2,1,s3_15_t1lt2rt3r,9142679346,correct
P17,3.77021E+14,s3,t2,2,s3_18_t1lt2rt3r,2273622455,correct
P17,3.77024E+14,s3,t2,3,s3_34_t1rt2lt3r,4252808126,correct
P17,3.7703E+14,s3,t2,4,s3_30_t1rt2lt3r,2047859382,correct
P17,3.77033E+14,s3,t2,5,s3_5_t1lt2rt3l,3122716822,correct
P17,3.77038E+14,s3,t2,6,s3_10_t1rt2rt3r,4604895317,correct
P17,3.77044E+14,s3,t2,7,s3_35_t1lt2lt3r,2781171954,correct
P17,3.77048E+14,s3,t2,8,s3_23_t1rt2lt3l,2591446389,correct
P17,3.77052E+14,s3,t2,9,s3_22_t1rt2lt3l,4814730105,correct
P17,3.77058E+14,s3,t2,10,s3_31_t1rt2lt3r,1820450428,correct
P17,3.77061E+14,s3,t2,11,s3_29_t1lt2lt3l,2857725420,correct
P17,3.77066E+14,s3,t2,12,s3_1_t1rt2rt3l,3490798146,correct
P17,3.7707E+14,s3,t2,13,s3_37_t1lt2lt3r,2753373130,correct
P17,3.77075E+14,s3,t2,14,s3_33_t1rt2lt3r,1051780887,correct
P17,3.77077E+14,s3,t2,15,s3_39_t1lt2lt3r,1509374850,correct
P17,3.7708E+14,s3,t2,16,s3_25_t1lt2lt3l,2505064563,correct
P17,3.77085E+14,s3,t2,17,s3_7_t1lt2rt3l,970424748,correct
P17,3.77087E+14,s3,t2,18,s3_26_t1lt2lt3l,1592751923,correct
P17,3.7709E+14,s3,t2,19,s3_11_t1rt2rt3r,1247891909,correct
P17,3.77093E+14,s3,t2,20,s3_6_t1lt2rt3l,2952962589,correct
P17,3.77097E+14,s3,t2,21,s3_21_t1rt2lt3l,2446873859,correct
P17,3.77101E+14,s3,t2,22,s3_9_t1lt2rt3l,3653462690,correct
P17,3.77107E+14,s3,t2,23,s3_2_t1rt2rt3l,1794216316,correct
P17,3.7711E+14,s3,t2,24,s3_38_t1lt2lt3r,2134575390,correct
P17,3.77113E+14,s3,t2,25,s3_19_t1lt2rt3r,3329318894,correct
P17,3.77118E+14,s3,t2,26,s3_17_t1lt2rt3r,1395898972,correct
P17,3.77121E+14,s3,t2,27,s3_14_t1rt2rt3r,2588591781,correct
P17,3.77124E+14,s3,t2,28,s3_13_t1rt2rt3r,9386820701,correct
P17,3.77135E+14,s3,t2,29,s3_27_t1lt2lt3l,2203962317,correct
P17,3.77139E+14,s3,t2,30,s3_3_t1rt2rt3l,1686766580,error
P17,3.77157E+14,s3,t3,practice,s3_8_t1lt2rt3l,6995985295,correct
P17,3.77165E+14,s3,t3,practice,s3_36_t1lt2lt3r,4325358148,correct
P17,3.7717E+14,s3,t3,practice,s3_12_t1rt2rt3r,1740306991,correct
P17,3.77173E+14,s3,t3,practice,s3_16_t1lt2rt3r,1685103819,correct
P17,3.77177E+14,s3,t3,practice,s3_32_t1rt2lt3r,1571780368,correct
P17,3.77179E+14,s3,t3,practice,s3_0_t1rt2rt3l,1446709725,correct
P17,3.77182E+14,s3,t3,practice,s3_28_t1lt2lt3l,745293099,correct
P17,3.77184E+14,s3,t3,practice,s3_24_t1rt2lt3l,1042534355,correct
P17,3.77186E+14,s3,t3,practice,s3_4_t1rt2rt3l,1438061554,correct
P17,3.77189E+14,s3,t3,practice,s3_20_t1rt2lt3l,1373834290,correct
P17,3.77192E+14,s3,t3,practice,s3_32_t1rt2lt3r,1622483870,correct
P17,3.77195E+14,s3,t3,practice,s3_12_t1rt2rt3r,1515158112,correct
P17,3.77197E+14,s3,t3,practice,s3_24_t1rt2lt3l,1146891049,correct
P17,3.772E+14,s3,t3,practice,s3_8_t1lt2rt3l,1389918287,correct
P17,3.77203E+14,s3,t3,practice,s3_28_t1lt2lt3l,1012029598,correct
P17,3.77214E+14,s3,t3,1,s3_15_t1lt2rt3r,2207390168,correct
P17,3.77218E+14,s3,t3,2,s3_18_t1lt2rt3r,1266289849,correct
P17,3.7722E+14,s3,t3,3,s3_34_t1rt2lt3r,1389040614,error
P17,3.77223E+14,s3,t3,4,s3_30_t1rt2lt3r,1092783458,correct
P17,3.77227E+14,s3,t3,5,s3_5_t1lt2rt3l,3130413305,correct
P17,3.77231E+14,s3,t3,6,s3_10_t1rt2rt3r,1036176739,correct
P17,3.77233E+14,s3,t3,7,s3_35_t1lt2lt3r,1345959181,correct
P17,3.77236E+14,s3,t3,8,s3_23_t1rt2lt3l,1223603886,correct
P17,3.77239E+14,s3,t3,9,s3_22_t1rt2lt3l,5363763023,correct
P17,3.77246E+14,s3,t3,10,s3_31_t1rt2lt3r,1293680985,correct
P17,3.77248E+14,s3,t3,11,s3_29_t1lt2lt3l,743741435,correct
P17,3.7725E+14,s3,t3,12,s3_1_t1rt2rt3l,695227261,correct
P17,3.77253E+14,s3,t3,13,s3_37_t1lt2lt3r,772874507,correct
P17,3.77255E+14,s3,t3,14,s3_33_t1rt2lt3r,889603731,correct
P17,3.77257E+14,s3,t3,15,s3_39_t1lt2lt3r,701203146,correct
P17,3.77259E+14,s3,t3,16,s3_25_t1lt2lt3l,606419188,error
P17,3.77261E+14,s3,t3,17,s3_7_t1lt2rt3l,2174151120,correct
P17,3.77264E+14,s3,t3,18,s3_26_t1lt2lt3l,852579402,correct
P17,3.77266E+14,s3,t3,19,s3_11_t1rt2rt3r,963942583,correct
P17,3.77269E+14,s3,t3,20,s3_6_t1lt2rt3l,759482297,correct
P17,3.77271E+14,s3,t3,21,s3_21_t1rt2lt3l,584344154,correct
P17,3.77273E+14,s3,t3,22,s3_9_t1lt2rt3l,709702523,correct
P17,3.77275E+14,s3,t3,23,s3_2_t1rt2rt3l,548580111,correct
P17,3.77278E+14,s3,t3,24,s3_38_t1lt2lt3r,595593908,error
P17,3.77279E+14,s3,t3,25,s3_19_t1lt2rt3r,1041609067,correct
P17,3.77282E+14,s3,t3,26,s3_17_t1lt2rt3r,609342403,correct
P17,3.77284E+14,s3,t3,27,s3_14_t1rt2rt3r,1161492259,correct
P17,3.77286E+14,s3,t3,28,s3_13_t1rt2rt3r,992187787,correct
P17,3.77289E+14,s3,t3,29,s3_27_t1lt2lt3l,831660212,correct
P17,3.77291E+14,s3,t3,30,s3_3_t1rt2rt3l,850795501,correct
P17,3.77301E+14,s1,t1,practice,s1_48_t1lt2rt3l,2839386082,correct
P17,3.77305E+14,s1,t1,practice,s1_76_t1lt2lt3r,1232787631,correct
P17,3.77308E+14,s1,t1,practice,s1_52_t1rt2rt3r,3239013157,correct
P17,3.77312E+14,s1,t1,practice,s1_56_t1lt2rt3r,718101360,error
P17,3.77314E+14,s1,t1,practice,s1_72_t1rt2lt3r,894765454,correct
P17,3.77316E+14,s1,t1,practice,s1_40_t1rt2rt3l,881830409,correct
P17,3.77319E+14,s1,t1,practice,s1_68_t1lt2lt3l,981026448,correct
P17,3.77321E+14,s1,t1,practice,s1_64_t1rt2lt3l,708901669,correct
P17,3.77323E+14,s1,t1,practice,s1_44_t1rt2rt3l,810193742,correct
P17,3.77325E+14,s1,t1,practice,s1_60_t1rt2lt3l,750377087,correct
P17,3.77327E+14,s1,t1,practice,s1_72_t1rt2lt3r,1294178408,correct
P17,3.7733E+14,s1,t1,practice,s1_52_t1rt2rt3r,758904035,correct
P17,3.77332E+14,s1,t1,practice,s1_64_t1rt2lt3l,570875731,correct
P17,3.77334E+14,s1,t1,practice,s1_48_t1lt2rt3l,1181644298,correct
P17,3.77336E+14,s1,t1,practice,s1_68_t1lt2lt3l,723425927,correct
P17,3.77347E+14,s1,t1,1,s1_55_t1lt2rt3r,1142190070,correct
P17,3.77349E+14,s1,t1,2,s1_58_t1lt2rt3r,923035825,correct
P17,3.77352E+14,s1,t1,3,s1_74_t1rt2lt3r,924313238,correct
P17,3.77354E+14,s1,t1,4,s1_70_t1rt2lt3r,956322019,correct
P17,3.77356E+14,s1,t1,5,s1_45_t1lt2rt3l,748165269,correct
P17,3.77358E+14,s1,t1,6,s1_50_t1rt2rt3r,684538118,correct
P17,3.7736E+14,s1,t1,7,s1_75_t1lt2lt3r,539419710,correct
P17,3.77362E+14,s1,t1,8,s1_63_t1rt2lt3l,569739453,correct
P17,3.77364E+14,s1,t1,9,s1_62_t1rt2lt3l,596620580,correct
P17,3.77366E+14,s1,t1,10,s1_71_t1rt2lt3r,774534200,error
P17,3.77368E+14,s1,t1,11,s1_69_t1lt2lt3l,725489003,correct
P17,3.7737E+14,s1,t1,12,s1_41_t1rt2rt3l,838182534,correct
P17,3.77372E+14,s1,t1,13,s1_77_t1lt2lt3r,869195675,correct
P17,3.77374E+14,s1,t1,14,s1_73_t1rt2lt3r,950831129,correct
P17,3.77376E+14,s1,t1,15,s1_79_t1lt2lt3r,625983841,correct
P17,3.77378E+14,s1,t1,16,s1_65_t1lt2lt3l,535962933,correct
P17,3.7738E+14,s1,t1,17,s1_47_t1lt2rt3l,647217488,correct
P17,3.77382E+14,s1,t1,18,s1_66_t1lt2lt3l,791879379,correct
P17,3.77384E+14,s1,t1,19,s1_51_t1rt2rt3r,2199545230,correct
P17,3.77387E+14,s1,t1,20,s1_46_t1lt2rt3l,802116397,correct
P17,3.7739E+14,s1,t1,21,s1_61_t1rt2lt3l,670101577,correct
P17,3.77392E+14,s1,t1,22,s1_49_t1lt2rt3l,587185993,correct
P17,3.77393E+14,s1,t1,23,s1_42_t1rt2rt3l,1127228822,correct
P17,3.77396E+14,s1,t1,24,s1_78_t1lt2lt3r,527107154,correct
P17,3.77398E+14,s1,t1,25,s1_59_t1lt2rt3r,1053801250,correct
P17,3.774E+14,s1,t1,26,s1_57_t1lt2rt3r,1090763054,correct
P17,3.77404E+14,s1,t1,27,s1_54_t1rt2rt3r,3903779404,correct
P17,3.77409E+14,s1,t1,28,s1_53_t1rt2rt3r,1068823225,correct
P17,3.77411E+14,s1,t1,29,s1_67_t1lt2lt3l,765870630,correct
P17,3.77413E+14,s1,t1,30,s1_43_t1rt2rt3l,953474318,correct
P17,3.77422E+14,s1,t2,practice,s1_48_t1lt2rt3l,4838923611,correct
P17,3.77428E+14,s1,t2,practice,s1_76_t1lt2lt3r,1732565962,correct
P17,3.77431E+14,s1,t2,practice,s1_52_t1rt2rt3r,1196952040,correct
P17,3.77433E+14,s1,t2,practice,s1_56_t1lt2rt3r,3007729018,correct
P17,3.77438E+14,s1,t2,practice,s1_72_t1rt2lt3r,3272813200,correct
P17,3.77442E+14,s1,t2,practice,s1_40_t1rt2rt3l,3029270919,correct
P17,3.77446E+14,s1,t2,practice,s1_68_t1lt2lt3l,2586803330,correct
P17,3.7745E+14,s1,t2,practice,s1_64_t1rt2lt3l,2062014871,correct
P17,3.77453E+14,s1,t2,practice,s1_44_t1rt2rt3l,1992166779,correct
P17,3.77457E+14,s1,t2,practice,s1_60_t1rt2lt3l,1828576026,correct
P17,3.7746E+14,s1,t2,practice,s1_72_t1rt2lt3r,2947374551,correct
P17,3.77464E+14,s1,t2,practice,s1_52_t1rt2rt3r,1148304191,correct
P17,3.77467E+14,s1,t2,practice,s1_64_t1rt2lt3l,1943240902,correct
P17,3.7747E+14,s1,t2,practice,s1_48_t1lt2rt3l,4561267398,correct
P17,3.77476E+14,s1,t2,practice,s1_68_t1lt2lt3l,2154775736,correct
P17,3.77489E+14,s1,t2,1,s1_55_t1lt2rt3r,2975475023,correct
P17,3.77493E+14,s1,t2,2,s1_58_t1lt2rt3r,1674604148,correct
P17,3.77496E+14,s1,t2,3,s1_74_t1rt2lt3r,1296063149,correct
P17,3.77498E+14,s1,t2,4,s1_70_t1rt2lt3r,777810749,correct
P17,3.77501E+14,s1,t2,5,s1_45_t1lt2rt3l,1384356446,correct
P17,3.77503E+14,s1,t2,6,s1_50_t1rt2rt3r,2917304301,correct
P17,3.77508E+14,s1,t2,7,s1_75_t1lt2lt3r,1115445554,correct
P17,3.7751E+14,s1,t2,8,s1_63_t1rt2lt3l,1034291121,correct
P17,3.77513E+14,s1,t2,9,s1_62_t1rt2lt3l,1281242932,correct
P17,3.77515E+14,s1,t2,10,s1_71_t1rt2lt3r,1019389294,correct
P17,3.77518E+14,s1,t2,11,s1_69_t1lt2lt3l,1226623996,correct
P17,3.7752E+14,s1,t2,12,s1_41_t1rt2rt3l,1510132358,correct
P17,3.77523E+14,s1,t2,13,s1_77_t1lt2lt3r,3835853091,error
P17,3.77528E+14,s1,t2,14,s1_73_t1rt2lt3r,2859742183,correct
P17,3.77533E+14,s1,t2,15,s1_79_t1lt2lt3r,1338103515,correct
P17,3.77535E+14,s1,t2,16,s1_65_t1lt2lt3l,725469363,correct
P17,3.77538E+14,s1,t2,17,s1_47_t1lt2rt3l,912694355,correct
P17,3.7754E+14,s1,t2,18,s1_66_t1lt2lt3l,933639998,correct
P17,3.77542E+14,s1,t2,19,s1_51_t1rt2rt3r,1051868948,correct
P17,3.77544E+14,s1,t2,20,s1_46_t1lt2rt3l,1320753161,correct
P17,3.77547E+14,s1,t2,21,s1_61_t1rt2lt3l,2369828545,correct
P17,3.77551E+14,s1,t2,22,s1_49_t1lt2rt3l,1046517919,correct
P17,3.77553E+14,s1,t2,23,s1_42_t1rt2rt3l,1434281120,correct
P17,3.77556E+14,s1,t2,24,s1_78_t1lt2lt3r,2565497449,correct
P17,3.7756E+14,s1,t2,25,s1_59_t1lt2rt3r,2197156199,correct
P17,3.77563E+14,s1,t2,26,s1_57_t1lt2rt3r,4332037263,correct
P17,3.77569E+14,s1,t2,27,s1_54_t1rt2rt3r,778630123,correct
P17,3.77571E+14,s1,t2,28,s1_53_t1rt2rt3r,1649304482,correct
P17,3.77574E+14,s1,t2,29,s1_67_t1lt2lt3l,1742344702,correct
P17,3.77577E+14,s1,t2,30,s1_43_t1rt2rt3l,1789619961,correct
P17,3.77585E+14,s1,t3,practice,s1_48_t1lt2rt3l,3060358681,correct
P17,3.77589E+14,s1,t3,practice,s1_76_t1lt2lt3r,1327684716,correct
P17,3.77592E+14,s1,t3,practice,s1_52_t1rt2rt3r,1615984333,correct
P17,3.77596E+14,s1,t3,practice,s1_56_t1lt2rt3r,542301209,correct
P17,3.77598E+14,s1,t3,practice,s1_72_t1rt2lt3r,1225356926,correct
P17,3.77601E+14,s1,t3,practice,s1_40_t1rt2rt3l,1314190835,correct
P17,3.77603E+14,s1,t3,practice,s1_68_t1lt2lt3l,1068001567,correct
P17,3.77605E+14,s1,t3,practice,s1_64_t1rt2lt3l,766892850,correct
P17,3.77608E+14,s1,t3,practice,s1_44_t1rt2rt3l,574967212,correct
P17,3.77609E+14,s1,t3,practice,s1_60_t1rt2lt3l,636886944,correct
P17,3.77611E+14,s1,t3,practice,s1_72_t1rt2lt3r,691944356,error
P17,3.77613E+14,s1,t3,practice,s1_52_t1rt2rt3r,2762895272,correct
P17,3.77618E+14,s1,t3,practice,s1_64_t1rt2lt3l,848723377,correct
P17,3.7762E+14,s1,t3,practice,s1_48_t1lt2rt3l,698020447,correct
P17,3.77622E+14,s1,t3,practice,s1_68_t1lt2lt3l,634517359,correct
P17,3.77633E+14,s1,t3,1,s1_55_t1lt2rt3r,2139231316,correct
P17,3.77636E+14,s1,t3,2,s1_58_t1lt2rt3r,1078728247,correct
P17,3.77639E+14,s1,t3,3,s1_74_t1rt2lt3r,857463887,correct
P17,3.77641E+14,s1,t3,4,s1_70_t1rt2lt3r,893996661,correct
P17,3.77643E+14,s1,t3,5,s1_45_t1lt2rt3l,1106111227,correct
P17,3.77646E+14,s1,t3,6,s1_50_t1rt2rt3r,650540427,correct
P17,3.77648E+14,s1,t3,7,s1_75_t1lt2lt3r,976552401,error
P17,3.7765E+14,s1,t3,8,s1_63_t1rt2lt3l,1348350732,correct
P17,3.77653E+14,s1,t3,9,s1_62_t1rt2lt3l,877705932,correct
P17,3.77655E+14,s1,t3,10,s1_71_t1rt2lt3r,700644132,correct
P17,3.77658E+14,s1,t3,11,s1_69_t1lt2lt3l,734894443,correct
P17,3.7766E+14,s1,t3,12,s1_41_t1rt2rt3l,1297338700,correct
P17,3.77663E+14,s1,t3,13,s1_77_t1lt2lt3r,718508537,correct
P17,3.77665E+14,s1,t3,14,s1_73_t1rt2lt3r,910642665,correct
P17,3.77667E+14,s1,t3,15,s1_79_t1lt2lt3r,880157744,correct
P17,3.7767E+14,s1,t3,16,s1_65_t1lt2lt3l,819934789,correct
P17,3.77672E+14,s1,t3,17,s1_47_t1lt2rt3l,719150995,correct
P17,3.77674E+14,s1,t3,18,s1_66_t1lt2lt3l,597705751,correct
P17,3.77676E+14,s1,t3,19,s1_51_t1rt2rt3r,873270888,correct
P17,3.77678E+14,s1,t3,20,s1_46_t1lt2rt3l,689298243,correct
P17,3.7768E+14,s1,t3,21,s1_61_t1rt2lt3l,741712621,correct
P17,3.77682E+14,s1,t3,22,s1_49_t1lt2rt3l,835645174,correct
P17,3.77684E+14,s1,t3,23,s1_42_t1rt2rt3l,585277276,correct
P17,3.77686E+14,s1,t3,24,s1_78_t1lt2lt3r,853886532,correct
P17,3.77688E+14,s1,t3,25,s1_59_t1lt2rt3r,626192182,correct
P17,3.7769E+14,s1,t3,26,s1_57_t1lt2rt3r,810426158,correct
P17,3.77692E+14,s1,t3,27,s1_54_t1rt2rt3r,861636615,correct
P17,3.77695E+14,s1,t3,28,s1_53_t1rt2rt3r,572454907,correct
P17,3.77697E+14,s1,t3,29,s1_67_t1lt2lt3l,841578734,correct
P17,3.77699E+14,s1,t3,30,s1_43_t1rt2rt3l,2033408705,correct
P17,3.77706E+14,s2,t1,practice,s2_88_t1lt2rt3l,2274587227,correct
P17,3.77709E+14,s2,t1,practice,s2_116_t1lt2lt3r,2644598979,correct
P17,3.77713E+14,s2,t1,practice,s2_92_t1rt2rt3r,5495818916,error
P17,3.7772E+14,s2,t1,practice,s2_96_t1lt2rt3r,1571250392,correct
P17,3.77723E+14,s2,t1,practice,s2_112_t1rt2lt3r,1430207932,correct
P17,3.77726E+14,s2,t1,practice,s2_80_t1rt2rt3l,899561679,error
P17,3.77729E+14,s2,t1,practice,s2_108_t1lt2lt3l,1575755361,correct
P17,3.77732E+14,s2,t1,practice,s2_104_t1rt2lt3l,706454984,correct
P17,3.77733E+14,s2,t1,practice,s2_84_t1rt2rt3l,997374709,correct
P17,3.77736E+14,s2,t1,practice,s2_100_t1rt2lt3l,1114922311,correct
P17,3.77738E+14,s2,t1,practice,s2_112_t1rt2lt3r,829486661,correct
P17,3.7774E+14,s2,t1,practice,s2_92_t1rt2rt3r,2639892259,correct
P17,3.77744E+14,s2,t1,practice,s2_104_t1rt2lt3l,687391046,correct
P17,3.77746E+14,s2,t1,practice,s2_88_t1lt2rt3l,806601260,correct
P17,3.77748E+14,s2,t1,practice,s2_108_t1lt2lt3l,934822703,correct
P17,3.77759E+14,s2,t1,1,s2_95_t1lt2rt3r,1602092978,correct
P17,3.77762E+14,s2,t1,2,s2_98_t1lt2rt3r,438494372,correct
P17,3.77765E+14,s2,t1,3,s2_114_t1rt2lt3r,1923565521,correct
P17,3.77768E+14,s2,t1,4,s2_110_t1rt2lt3r,795498007,correct
P17,3.7777E+14,s2,t1,5,s2_85_t1lt2rt3l,2568441278,correct
P17,3.77774E+14,s2,t1,6,s2_90_t1rt2rt3r,903645380,correct
P17,3.77776E+14,s2,t1,7,s2_115_t1lt2lt3r,646551680,correct
P17,3.77778E+14,s2,t1,8,s2_103_t1rt2lt3l,1154498821,correct
P17,3.77781E+14,s2,t1,9,s2_102_t1rt2lt3l,933268795,correct
P17,3.77783E+14,s2,t1,10,s2_111_t1rt2lt3r,2307932654,error
P17,3.77787E+14,s2,t1,11,s2_109_t1lt2lt3l,1008878496,correct
P17,3.77789E+14,s2,t1,12,s2_81_t1rt2rt3l,731084909,correct
P17,3.77792E+14,s2,t1,13,s2_117_t1lt2lt3r,495411780,correct
P17,3.77793E+14,s2,t1,14,s2_113_t1rt2lt3r,914349019,correct
P17,3.77796E+14,s2,t1,15,s2_119_t1lt2lt3r,766246024,correct
P17,3.77798E+14,s2,t1,16,s2_105_t1lt2lt3l,713486829,correct
P17,3.778E+14,s2,t1,17,s2_87_t1lt2rt3l,635734847,correct
P17,3.77802E+14,s2,t1,18,s2_106_t1lt2lt3l,700570282,correct
P17,3.77804E+14,s2,t1,19,s2_91_t1rt2rt3r,978363260,correct
P17,3.77806E+14,s2,t1,20,s2_86_t1lt2rt3l,573599348,correct
P17,3.77808E+14,s2,t1,21,s2_101_t1rt2lt3l,652011610,correct
P17,3.7781E+14,s2,t1,22,s2_89_t1lt2rt3l,540102332,correct
P17,3.77812E+14,s2,t1,23,s2_82_t1rt2rt3l,679328906,correct
P17,3.77814E+14,s2,t1,24,s2_118_t1lt2lt3r,634797826,correct
P17,3.77816E+14,s2,t1,25,s2_99_t1lt2rt3r,626587079,correct
P17,3.77817E+14,s2,t1,26,s2_97_t1lt2rt3r,1517300165,correct
P17,3.7782E+14,s2,t1,27,s2_94_t1rt2rt3r,905326942,correct
P17,3.77822E+14,s2,t1,28,s2_93_t1rt2rt3r,1071700617,correct
P17,3.77825E+14,s2,t1,29,s2_107_t1lt2lt3l,654891262,correct
P17,3.77827E+14,s2,t1,30,s2_83_t1rt2rt3l,1013090020,correct
P17,3.77833E+14,s2,t2,practice,s2_88_t1lt2rt3l,3179652172,correct
P17,3.77837E+14,s2,t2,practice,s2_116_t1lt2lt3r,1354303690,correct
P17,3.7784E+14,s2,t2,practice,s2_92_t1rt2rt3r,2404172961,correct
P17,3.77844E+14,s2,t2,practice,s2_96_t1lt2rt3r,1020769200,correct
P17,3.77846E+14,s2,t2,practice,s2_112_t1rt2lt3r,1108591118,correct
P17,3.77849E+14,s2,t2,practice,s2_80_t1rt2rt3l,1819280131,correct
P17,3.77852E+14,s2,t2,practice,s2_108_t1lt2lt3l,1566383709,correct
P17,3.77855E+14,s2,t2,practice,s2_104_t1rt2lt3l,718270012,correct
P17,3.77857E+14,s2,t2,practice,s2_84_t1rt2rt3l,1055348987,correct
P17,3.77859E+14,s2,t2,practice,s2_100_t1rt2lt3l,1080869674,correct
P17,3.77862E+14,s2,t2,practice,s2_112_t1rt2lt3r,1049371490,error
P17,3.77864E+14,s2,t2,practice,s2_92_t1rt2rt3r,1566736989,correct
P17,3.77867E+14,s2,t2,practice,s2_104_t1rt2lt3l,2668001462,correct
P17,3.77871E+14,s2,t2,practice,s2_88_t1lt2rt3l,1933109943,correct
P17,3.77875E+14,s2,t2,practice,s2_108_t1lt2lt3l,978509789,correct
P17,3.77886E+14,s2,t2,1,s2_95_t1lt2rt3r,2029253621,correct
P17,3.77889E+14,s2,t2,2,s2_98_t1lt2rt3r,991902151,correct
P17,3.77891E+14,s2,t2,3,s2_114_t1rt2lt3r,1593798492,correct
P17,3.77894E+14,s2,t2,4,s2_110_t1rt2lt3r,1437926381,correct
P17,3.77897E+14,s2,t2,5,s2_85_t1lt2rt3l,1895963560,correct
P17,3.779E+14,s2,t2,6,s2_90_t1rt2rt3r,1138307661,correct
P17,3.77903E+14,s2,t2,7,s2_115_t1lt2lt3r,1206762367,correct
P17,3.77905E+14,s2,t2,8,s2_103_t1rt2lt3l,683921129,correct
P17,3.77907E+14,s2,t2,9,s2_102_t1rt2lt3l,781648762,correct
P17,3.77909E+14,s2,t2,10,s2_111_t1rt2lt3r,868479925,correct
P17,3.77911E+14,s2,t2,11,s2_109_t1lt2lt3l,406118998,correct
P17,3.77913E+14,s2,t2,12,s2_81_t1rt2rt3l,583682130,correct
P17,3.77915E+14,s2,t2,13,s2_117_t1lt2lt3r,977141798,correct
P17,3.77918E+14,s2,t2,14,s2_113_t1rt2lt3r,890924395,correct
P17,3.7792E+14,s2,t2,15,s2_119_t1lt2lt3r,591764883,correct
P17,3.77922E+14,s2,t2,16,s2_105_t1lt2lt3l,596830228,correct
P17,3.77923E+14,s2,t2,17,s2_87_t1lt2rt3l,1061058873,correct
P17,3.77926E+14,s2,t2,18,s2_106_t1lt2lt3l,1053534902,correct
P17,3.77928E+14,s2,t2,19,s2_91_t1rt2rt3r,888498430,correct
P17,3.7793E+14,s2,t2,20,s2_86_t1lt2rt3l,3321715456,correct
P17,3.77935E+14,s2,t2,21,s2_101_t1rt2lt3l,896322141,correct
P17,3.77937E+14,s2,t2,22,s2_89_t1lt2rt3l,3622830312,correct
P17,3.77942E+14,s2,t2,23,s2_82_t1rt2rt3l,895564031,correct
P17,3.77945E+14,s2,t2,24,s2_118_t1lt2lt3r,284570387,correct
P17,3.77947E+14,s2,t2,25,s2_99_t1lt2rt3r,3309837829,correct
P17,3.77952E+14,s2,t2,26,s2_97_t1lt2rt3r,1577376566,correct
P17,3.77955E+14,s2,t2,27,s2_94_t1rt2rt3r,2116823031,correct
P17,3.77958E+14,s2,t2,28,s2_93_t1rt2rt3r,1228977699,correct
P17,3.77961E+14,s2,t2,29,s2_107_t1lt2lt3l,1254683700,correct
P17,3.77963E+14,s2,t2,30,s2_83_t1rt2rt3l,1464005510,correct
P17,3.77969E+14,s2,t3,practice,s2_88_t1lt2rt3l,1707227019,correct
P17,3.77972E+14,s2,t3,practice,s2_116_t1lt2lt3r,1675184842,error
P17,3.77976E+14,s2,t3,practice,s2_92_t1rt2rt3r,850518678,error
P17,3.77978E+14,s2,t3,practice,s2_96_t1lt2rt3r,1211247929,error
P17,3.77981E+14,s2,t3,practice,s2_112_t1rt2lt3r,1129801232,correct
P17,3.77983E+14,s2,t3,practice,s2_80_t1rt2rt3l,871425662,correct
P17,3.77985E+14,s2,t3,practice,s2_108_t1lt2lt3l,565805875,correct
P17,3.77988E+14,s2,t3,practice,s2_104_t1rt2lt3l,555106728,error
P17,3.77989E+14,s2,t3,practice,s2_84_t1rt2rt3l,1915516046,error
P17,3.77992E+14,s2,t3,practice,s2_100_t1rt2lt3l,3093906547,error
P17,3.77997E+14,s2,t3,practice,s2_112_t1rt2lt3r,2415033604,correct
P17,3.78001E+14,s2,t3,practice,s2_92_t1rt2rt3r,1004120590,correct
P17,3.78003E+14,s2,t3,practice,s2_104_t1rt2lt3l,942832930,error
P17,3.78005E+14,s2,t3,practice,s2_88_t1lt2rt3l,1011227250,correct
P17,3.78007E+14,s2,t3,practice,s2_108_t1lt2lt3l,1426216262,correct
P17,3.78019E+14,s2,t3,1,s2_95_t1lt2rt3r,2233875152,error
P17,3.78023E+14,s2,t3,2,s2_98_t1lt2rt3r,995747902,error
P17,3.78025E+14,s2,t3,3,s2_114_t1rt2lt3r,5286534328,correct
P17,3.78032E+14,s2,t3,4,s2_110_t1rt2lt3r,1996141612,correct
P17,3.78035E+14,s2,t3,5,s2_85_t1lt2rt3l,1440941379,correct
P17,3.78038E+14,s2,t3,6,s2_90_t1rt2rt3r,944630867,correct
P17,3.7804E+14,s2,t3,7,s2_115_t1lt2lt3r,316521537,error
P17,3.78042E+14,s2,t3,8,s2_103_t1rt2lt3l,1330701351,error
P17,3.78045E+14,s2,t3,9,s2_102_t1rt2lt3l,1169868149,error
P17,3.78048E+14,s2,t3,10,s2_111_t1rt2lt3r,1183034899,error
P17,3.7805E+14,s2,t3,11,s2_109_t1lt2lt3l,924036639,correct
P17,3.78052E+14,s2,t3,12,s2_81_t1rt2rt3l,669472266,error
P17,3.78054E+14,s2,t3,13,s2_117_t1lt2lt3r,897669286,error
P17,3.78057E+14,s2,t3,14,s2_113_t1rt2lt3r,1009779990,correct
P17,3.78059E+14,s2,t3,15,s2_119_t1lt2lt3r,728749011,error
P17,3.78061E+14,s2,t3,16,s2_105_t1lt2lt3l,1147406080,correct
P17,3.78064E+14,s2,t3,17,s2_87_t1lt2rt3l,1069465221,correct
P17,3.78067E+14,s2,t3,18,s2_106_t1lt2lt3l,1323614613,correct
P17,3.78069E+14,s2,t3,19,s2_91_t1rt2rt3r,996876778,correct
P17,3.78072E+14,s2,t3,20,s2_86_t1lt2rt3l,749164408,correct
P17,3.78073E+14,s2,t3,21,s2_101_t1rt2lt3l,1008886711,error
P17,3.78076E+14,s2,t3,22,s2_89_t1lt2rt3l,3628279677,correct
P17,3.78081E+14,s2,t3,23,s2_82_t1rt2rt3l,1148948446,error
P17,3.78083E+14,s2,t3,24,s2_118_t1lt2lt3r,1274478164,error
P17,3.78086E+14,s2,t3,25,s2_99_t1lt2rt3r,2329576756,error
P17,3.78089E+14,s2,t3,26,s2_97_t1lt2rt3r,3855336366,error
P17,3.78095E+14,s2,t3,27,s2_94_t1rt2rt3r,1024205902,correct
P17,3.78097E+14,s2,t3,28,s2_93_t1rt2rt3r,1097162930,correct
P17,3.78099E+14,s2,t3,29,s2_107_t1lt2lt3l,1022668229,correct
P17,3.781E+14,s2,t3,30,s2_83_t1rt2rt3l,848381299,error