participant,timestamp,chart,elements,trial,file,time,answer
P4,3.84303E+14,s2,t1,practice,s2_72_t1rt2lt3r,30819925776,correct
P4,3.84335E+14,s2,t1,practice,s2_64_t1rt2lt3l,2265898008,correct
P4,3.84338E+14,s2,t1,practice,s2_76_t1lt2lt3r,1809470398,correct
P4,3.84341E+14,s2,t1,practice,s2_48_t1lt2rt3l,3844464224,correct
P4,3.84346E+14,s2,t1,practice,s2_68_t1lt2lt3l,3071413078,correct
P4,3.84351E+14,s2,t1,practice,s2_44_t1rt2rt3l,10297533612,correct
P4,3.84362E+14,s2,t1,practice,s2_52_t1rt2rt3r,3402897185,correct
P4,3.84367E+14,s2,t1,practice,s2_56_t1lt2rt3r,18675965439,correct
P4,3.84387E+14,s2,t1,practice,s2_40_t1rt2rt3l,1750596653,correct
P4,3.84391E+14,s2,t1,practice,s2_60_t1rt2lt3l,1949763902,correct
P4,3.84394E+14,s2,t1,practice,s2_68_t1lt2lt3l,1433454722,correct
P4,3.84397E+14,s2,t1,practice,s2_76_t1lt2lt3r,3676553098,correct
P4,3.84402E+14,s2,t1,practice,s2_56_t1lt2rt3r,14938669385,correct
P4,3.84418E+14,s2,t1,practice,s2_72_t1rt2lt3r,1778723894,correct
P4,3.84422E+14,s2,t1,practice,s2_52_t1rt2rt3r,740331029,correct
P4,3.84433E+14,s2,t1,1,s2_63_t1rt2lt3l,10737476767,correct
P4,3.84445E+14,s2,t1,2,s2_54_t1rt2rt3r,1492232196,correct
P4,3.84448E+14,s2,t1,3,s2_47_t1lt2rt3l,2787333196,correct
P4,3.84452E+14,s2,t1,4,s2_77_t1lt2lt3r,1225285215,correct
P4,3.84455E+14,s2,t1,5,s2_49_t1lt2rt3l,1311218049,correct
P4,3.84458E+14,s2,t1,6,s2_69_t1lt2lt3l,982210941,correct
P4,3.8446E+14,s2,t1,7,s2_45_t1lt2rt3l,1023842989,correct
P4,3.84462E+14,s2,t1,8,s2_57_t1lt2rt3r,1188416729,correct
P4,3.84465E+14,s2,t1,9,s2_61_t1rt2lt3l,6282738296,correct
P4,3.84472E+14,s2,t1,10,s2_55_t1lt2rt3r,1283807708,correct
P4,3.84475E+14,s2,t1,11,s2_59_t1lt2rt3r,10876740659,correct
P4,3.84488E+14,s2,t1,12,s2_70_t1rt2lt3r,1905874447,correct
P4,3.84491E+14,s2,t1,13,s2_46_t1lt2rt3l,1199665711,correct
P4,3.84494E+14,s2,t1,14,s2_65_t1lt2lt3l,1327465449,correct
P4,3.84496E+14,s2,t1,15,s2_75_t1lt2lt3r,5739699044,correct
P4,3.84503E+14,s2,t1,16,s2_43_t1rt2rt3l,1190858086,correct
P4,3.84506E+14,s2,t1,17,s2_41_t1rt2rt3l,1634234783,correct
P4,3.8451E+14,s2,t1,18,s2_66_t1lt2lt3l,1038355678,correct
P4,3.84512E+14,s2,t1,19,s2_42_t1rt2rt3l,1689324046,correct
P4,3.84515E+14,s2,t1,20,s2_62_t1rt2lt3l,1307450359,correct
P4,3.84518E+14,s2,t1,21,s2_73_t1rt2lt3r,1430622424,correct
P4,3.84521E+14,s2,t1,22,s2_79_t1lt2lt3r,862722713,correct
P4,3.84523E+14,s2,t1,23,s2_78_t1lt2lt3r,678098630,correct
P4,3.84525E+14,s2,t1,24,s2_51_t1rt2rt3r,9767261764,correct
P4,3.84536E+14,s2,t1,25,s2_74_t1rt2lt3r,1315393051,correct
P4,3.84539E+14,s2,t1,26,s2_58_t1lt2rt3r,4377322361,correct
P4,3.84544E+14,s2,t1,27,s2_67_t1lt2lt3l,4883054956,correct
P4,3.84551E+14,s2,t1,28,s2_50_t1rt2rt3r,1425315947,correct
P4,3.84554E+14,s2,t1,29,s2_71_t1rt2lt3r,3757916096,correct
P4,3.84559E+14,s2,t1,30,s2_53_t1rt2rt3r,1467019646,correct
P4,3.84569E+14,s2,t2,practice,s2_72_t1rt2lt3r,7332500814,correct
P4,3.84577E+14,s2,t2,practice,s2_64_t1rt2lt3l,2178266362,correct
P4,3.84581E+14,s2,t2,practice,s2_76_t1lt2lt3r,2681070424,correct
P4,3.84585E+14,s2,t2,practice,s2_48_t1lt2rt3l,2294159344,correct
P4,3.84589E+14,s2,t2,practice,s2_68_t1lt2lt3l,1092392027,error
P4,3.84591E+14,s2,t2,practice,s2_44_t1rt2rt3l,9054720424,correct
P4,3.84601E+14,s2,t2,practice,s2_52_t1rt2rt3r,2572066655,correct
P4,3.84605E+14,s2,t2,practice,s2_56_t1lt2rt3r,1493276020,correct
P4,3.84608E+14,s2,t2,practice,s2_40_t1rt2rt3l,1216837966,correct
P4,3.8461E+14,s2,t2,practice,s2_60_t1rt2lt3l,1177480715,correct
P4,3.84613E+14,s2,t2,practice,s2_68_t1lt2lt3l,1629192747,correct
P4,3.84616E+14,s2,t2,practice,s2_76_t1lt2lt3r,1213320266,correct
P4,3.84619E+14,s2,t2,practice,s2_56_t1lt2rt3r,798236768,correct
P4,3.84621E+14,s2,t2,practice,s2_72_t1rt2lt3r,3255339774,correct
P4,3.84626E+14,s2,t2,practice,s2_52_t1rt2rt3r,1417499432,correct
P4,3.84638E+14,s2,t2,1,s2_63_t1rt2lt3l,2823689131,correct
P4,3.84642E+14,s2,t2,2,s2_54_t1rt2rt3r,742404413,correct
P4,3.84644E+14,s2,t2,3,s2_47_t1lt2rt3l,1123694058,correct
P4,3.84646E+14,s2,t2,4,s2_77_t1lt2lt3r,1804635920,correct
P4,3.84649E+14,s2,t2,5,s2_49_t1lt2rt3l,937940546,correct
P4,3.84652E+14,s2,t2,6,s2_69_t1lt2lt3l,2354377921,correct
P4,3.84655E+14,s2,t2,7,s2_45_t1lt2rt3l,1690365334,correct
P4,3.84658E+14,s2,t2,8,s2_57_t1lt2rt3r,2835259283,correct
P4,3.84662E+14,s2,t2,9,s2_61_t1rt2lt3l,1303113816,correct
P4,3.84665E+14,s2,t2,10,s2_55_t1lt2rt3r,2224032160,correct
P4,3.84668E+14,s2,t2,11,s2_59_t1lt2rt3r,1187389540,correct
P4,3.8467E+14,s2,t2,12,s2_70_t1rt2lt3r,1214907288,correct
P4,3.84673E+14,s2,t2,13,s2_46_t1lt2rt3l,1056901506,correct
P4,3.84675E+14,s2,t2,14,s2_65_t1lt2lt3l,1390153007,correct
P4,3.84678E+14,s2,t2,15,s2_75_t1lt2lt3r,1280423803,correct
P4,3.84681E+14,s2,t2,16,s2_43_t1rt2rt3l,2131322155,correct
P4,3.84684E+14,s2,t2,17,s2_41_t1rt2rt3l,4154183069,correct
P4,3.8469E+14,s2,t2,18,s2_66_t1lt2lt3l,1088193854,correct
P4,3.84692E+14,s2,t2,19,s2_42_t1rt2rt3l,1641096679,correct
P4,3.84695E+14,s2,t2,20,s2_62_t1rt2lt3l,2020579150,error
P4,3.84698E+14,s2,t2,21,s2_73_t1rt2lt3r,8724705954,correct
P4,3.84708E+14,s2,t2,22,s2_79_t1lt2lt3r,5175497058,correct
P4,3.84715E+14,s2,t2,23,s2_78_t1lt2lt3r,4613874458,correct
P4,3.84721E+14,s2,t2,24,s2_51_t1rt2rt3r,1124818562,correct
P4,3.84723E+14,s2,t2,25,s2_74_t1rt2lt3r,1450182360,correct
P4,3.84726E+14,s2,t2,26,s2_58_t1lt2rt3r,2470484009,correct
P4,3.8473E+14,s2,t2,27,s2_67_t1lt2lt3l,1431932353,correct
P4,3.84733E+14,s2,t2,28,s2_50_t1rt2rt3r,23245102385,correct
P4,3.84757E+14,s2,t2,29,s2_71_t1rt2lt3r,1132490780,correct
P4,3.8476E+14,s2,t2,30,s2_53_t1rt2rt3r,1431341259,correct
P4,3.84767E+14,s2,t3,practice,s2_72_t1rt2lt3r,6177138163,correct
P4,3.84775E+14,s2,t3,practice,s2_64_t1rt2lt3l,5972676650,correct
P4,3.84782E+14,s2,t3,practice,s2_76_t1lt2lt3r,1658991504,correct
P4,3.84785E+14,s2,t3,practice,s2_48_t1lt2rt3l,2628298620,correct
P4,3.84789E+14,s2,t3,practice,s2_68_t1lt2lt3l,2981462052,correct
P4,3.84793E+14,s2,t3,practice,s2_44_t1rt2rt3l,1090626776,correct
P4,3.84796E+14,s2,t3,practice,s2_52_t1rt2rt3r,1763075576,correct
P4,3.84799E+14,s2,t3,practice,s2_56_t1lt2rt3r,1366487747,correct
P4,3.84801E+14,s2,t3,practice,s2_40_t1rt2rt3l,3038744704,error
P4,3.84806E+14,s2,t3,practice,s2_60_t1rt2lt3l,2903045624,error
P4,3.84813E+14,s2,t3,practice,s2_68_t1lt2lt3l,16852969363,error
P4,3.84831E+14,s2,t3,practice,s2_76_t1lt2lt3r,3963598196,correct
P4,3.84836E+14,s2,t3,practice,s2_56_t1lt2rt3r,1655409202,correct
P4,3.84839E+14,s2,t3,practice,s2_72_t1rt2lt3r,1426447210,correct
P4,3.84842E+14,s2,t3,practice,s2_52_t1rt2rt3r,1172702928,correct
P4,3.84853E+14,s2,t3,1,s2_63_t1rt2lt3l,4548575119,correct
P4,3.84859E+14,s2,t3,2,s2_54_t1rt2rt3r,3901315446,correct
P4,3.84864E+14,s2,t3,3,s2_47_t1lt2rt3l,973012034,correct
P4,3.84866E+14,s2,t3,4,s2_77_t1lt2lt3r,963551196,correct
P4,3.84869E+14,s2,t3,5,s2_49_t1lt2rt3l,870180562,correct
P4,3.84872E+14,s2,t3,6,s2_69_t1lt2lt3l,4649851250,correct
P4,3.84878E+14,s2,t3,7,s2_45_t1lt2rt3l,1000620328,correct
P4,3.8488E+14,s2,t3,8,s2_57_t1lt2rt3r,2382396642,correct
P4,3.84884E+14,s2,t3,9,s2_61_t1rt2lt3l,5734980451,correct
P4,3.84891E+14,s2,t3,10,s2_55_t1lt2rt3r,1223981151,correct
P4,3.84893E+14,s2,t3,11,s2_59_t1lt2rt3r,8785800955,correct
P4,3.84903E+14,s2,t3,12,s2_70_t1rt2lt3r,878907759,correct
P4,3.84905E+14,s2,t3,13,s2_46_t1lt2rt3l,1365358523,correct
P4,3.84908E+14,s2,t3,14,s2_65_t1lt2lt3l,2181330002,correct
P4,3.84912E+14,s2,t3,15,s2_75_t1lt2lt3r,1161248491,correct
P4,3.84914E+14,s2,t3,16,s2_43_t1rt2rt3l,1278553026,correct
P4,3.84917E+14,s2,t3,17,s2_41_t1rt2rt3l,846615559,correct
P4,3.84919E+14,s2,t3,18,s2_66_t1lt2lt3l,2266088678,correct
P4,3.84922E+14,s2,t3,19,s2_42_t1rt2rt3l,5952544675,correct
P4,3.84931E+14,s2,t3,20,s2_62_t1rt2lt3l,225426995,correct
P4,3.84932E+14,s2,t3,21,s2_73_t1rt2lt3r,815588905,correct
P4,3.84934E+14,s2,t3,22,s2_79_t1lt2lt3r,1004637211,correct
P4,3.84937E+14,s2,t3,23,s2_78_t1lt2lt3r,781923086,correct
P4,3.84939E+14,s2,t3,24,s2_51_t1rt2rt3r,512466900,correct
P4,3.84941E+14,s2,t3,25,s2_74_t1rt2lt3r,541684421,correct
P4,3.84943E+14,s2,t3,26,s2_58_t1lt2rt3r,511791101,correct
P4,3.84945E+14,s2,t3,27,s2_67_t1lt2lt3l,1060313023,correct
P4,3.84947E+14,s2,t3,28,s2_50_t1rt2rt3r,596467314,correct
P4,3.84949E+14,s2,t3,29,s2_71_t1rt2lt3r,892348001,correct
P4,3.84951E+14,s2,t3,30,s2_53_t1rt2rt3r,730634510,correct
P4,3.84972E+14,s3,t1,practice,s3_112_t1rt2lt3r,6240777088,correct
P4,3.8498E+14,s3,t1,practice,s3_104_t1rt2lt3l,441645928,correct
P4,3.84982E+14,s3,t1,practice,s3_116_t1lt2lt3r,1462465663,correct
P4,3.84985E+14,s3,t1,practice,s3_88_t1lt2rt3l,662142257,correct
P4,3.84987E+14,s3,t1,practice,s3_108_t1lt2lt3l,3542729115,error
P4,3.84993E+14,s3,t1,practice,s3_84_t1rt2rt3l,3044723896,correct
P4,3.84997E+14,s3,t1,practice,s3_92_t1rt2rt3r,2707623597,error
P4,3.85001E+14,s3,t1,practice,s3_96_t1lt2rt3r,1040557286,correct
P4,3.85004E+14,s3,t1,practice,s3_80_t1rt2rt3l,972162046,correct
P4,3.85006E+14,s3,t1,practice,s3_100_t1rt2lt3l,587713239,correct
P4,3.85008E+14,s3,t1,practice,s3_108_t1lt2lt3l,1018463235,correct
P4,3.8501E+14,s3,t1,practice,s3_116_t1lt2lt3r,1199420737,error
P4,3.85013E+14,s3,t1,practice,s3_96_t1lt2rt3r,978265987,correct
P4,3.85015E+14,s3,t1,practice,s3_112_t1rt2lt3r,470793639,correct
P4,3.85017E+14,s3,t1,practice,s3_92_t1rt2rt3r,2072220981,error
P4,3.85029E+14,s3,t1,1,s3_103_t1rt2lt3l,8913794353,correct
P4,3.8504E+14,s3,t1,2,s3_94_t1rt2rt3r,850036821,correct
P4,3.85042E+14,s3,t1,3,s3_87_t1lt2rt3l,853650803,correct
P4,3.85045E+14,s3,t1,4,s3_117_t1lt2lt3r,731876932,correct
P4,3.85047E+14,s3,t1,5,s3_89_t1lt2rt3l,1452231815,correct
P4,3.85052E+14,s3,t1,6,s3_109_t1lt2lt3l,808309564,correct
P4,3.85054E+14,s3,t1,7,s3_85_t1lt2rt3l,1016960271,correct
P4,3.85057E+14,s3,t1,8,s3_97_t1lt2rt3r,945542252,correct
P4,3.85059E+14,s3,t1,9,s3_101_t1rt2lt3l,1015080806,correct
P4,3.85061E+14,s3,t1,10,s3_95_t1lt2rt3r,744561267,correct
P4,3.85063E+14,s3,t1,11,s3_99_t1lt2rt3r,807194196,correct
P4,3.85066E+14,s3,t1,12,s3_110_t1rt2lt3r,1066819077,correct
P4,3.85068E+14,s3,t1,13,s3_86_t1lt2rt3l,561749582,correct
P4,3.8507E+14,s3,t1,14,s3_105_t1lt2lt3l,715261663,correct
P4,3.85072E+14,s3,t1,15,s3_115_t1lt2lt3r,476663465,correct
P4,3.85074E+14,s3,t1,16,s3_83_t1rt2rt3l,570150935,correct
P4,3.85075E+14,s3,t1,17,s3_81_t1rt2rt3l,769245999,correct
P4,3.85077E+14,s3,t1,18,s3_106_t1lt2lt3l,516233920,correct
P4,3.85079E+14,s3,t1,19,s3_82_t1rt2rt3l,669755998,correct
P4,3.85081E+14,s3,t1,20,s3_102_t1rt2lt3l,572480639,correct
P4,3.85083E+14,s3,t1,21,s3_113_t1rt2lt3r,1146556585,correct
P4,3.85085E+14,s3,t1,22,s3_119_t1lt2lt3r,540884399,correct
P4,3.85087E+14,s3,t1,23,s3_118_t1lt2lt3r,478229012,correct
P4,3.8509E+14,s3,t1,24,s3_91_t1rt2rt3r,290775296,correct
P4,3.85091E+14,s3,t1,25,s3_114_t1rt2lt3r,914368890,error
P4,3.85094E+14,s3,t1,26,s3_98_t1lt2rt3r,1029787253,correct
P4,3.85096E+14,s3,t1,27,s3_107_t1lt2lt3l,717508701,correct
P4,3.85098E+14,s3,t1,28,s3_90_t1rt2rt3r,824732193,correct
P4,3.851E+14,s3,t1,29,s3_111_t1rt2lt3r,721309656,error
P4,3.85102E+14,s3,t1,30,s3_93_t1rt2rt3r,757628399,correct
P4,3.85111E+14,s3,t2,practice,s3_112_t1rt2lt3r,4905910822,error
P4,3.85117E+14,s3,t2,practice,s3_104_t1rt2lt3l,3305242720,correct
P4,3.85122E+14,s3,t2,practice,s3_116_t1lt2lt3r,1069741658,correct
P4,3.85124E+14,s3,t2,practice,s3_88_t1lt2rt3l,2124417431,correct
P4,3.85127E+14,s3,t2,practice,s3_108_t1lt2lt3l,2573409583,correct
P4,3.85131E+14,s3,t2,practice,s3_84_t1rt2rt3l,1341323749,correct
P4,3.85134E+14,s3,t2,practice,s3_92_t1rt2rt3r,2772981165,correct
P4,3.85138E+14,s3,t2,practice,s3_96_t1lt2rt3r,714626550,correct
P4,3.8514E+14,s3,t2,practice,s3_80_t1rt2rt3l,1571092608,correct
P4,3.85143E+14,s3,t2,practice,s3_100_t1rt2lt3l,1098526616,correct
P4,3.85145E+14,s3,t2,practice,s3_108_t1lt2lt3l,816891704,correct
P4,3.85147E+14,s3,t2,practice,s3_116_t1lt2lt3r,3430293564,correct
P4,3.85152E+14,s3,t2,practice,s3_96_t1lt2rt3r,645369358,correct
P4,3.85155E+14,s3,t2,practice,s3_112_t1rt2lt3r,4820236485,correct
P4,3.85161E+14,s3,t2,practice,s3_92_t1rt2rt3r,890805619,correct
P4,3.85172E+14,s3,t2,1,s3_103_t1rt2lt3l,2866157595,correct
P4,3.85176E+14,s3,t2,2,s3_94_t1rt2rt3r,1205659858,correct
P4,3.85179E+14,s3,t2,3,s3_87_t1lt2rt3l,924151710,correct
P4,3.85181E+14,s3,t2,4,s3_117_t1lt2lt3r,1257805886,correct
P4,3.85183E+14,s3,t2,5,s3_89_t1lt2rt3l,1049337528,correct
P4,3.85186E+14,s3,t2,6,s3_109_t1lt2lt3l,1082423728,correct
P4,3.85188E+14,s3,t2,7,s3_85_t1lt2rt3l,1130823268,error
P4,3.85191E+14,s3,t2,8,s3_97_t1lt2rt3r,1458744745,correct
P4,3.85193E+14,s3,t2,9,s3_101_t1rt2lt3l,1519813758,correct
P4,3.85196E+14,s3,t2,10,s3_95_t1lt2rt3r,1277043334,correct
P4,3.85199E+14,s3,t2,11,s3_99_t1lt2rt3r,2116636549,error
P4,3.85202E+14,s3,t2,12,s3_110_t1rt2lt3r,1880351856,correct
P4,3.85205E+14,s3,t2,13,s3_86_t1lt2rt3l,1625306617,correct
P4,3.85208E+14,s3,t2,14,s3_105_t1lt2lt3l,1032745104,correct
P4,3.8521E+14,s3,t2,15,s3_115_t1lt2lt3r,922431102,correct
P4,3.85213E+14,s3,t2,16,s3_83_t1rt2rt3l,1071629523,correct
P4,3.85215E+14,s3,t2,17,s3_81_t1rt2rt3l,676514259,correct
P4,3.85218E+14,s3,t2,18,s3_106_t1lt2lt3l,409192446,correct
P4,3.8522E+14,s3,t2,19,s3_82_t1rt2rt3l,670140893,correct
P4,3.85222E+14,s3,t2,20,s3_102_t1rt2lt3l,1208761383,correct
P4,3.85225E+14,s3,t2,21,s3_113_t1rt2lt3r,655844731,correct
P4,3.85227E+14,s3,t2,22,s3_119_t1lt2lt3r,647964667,correct
P4,3.85231E+14,s3,t2,23,s3_118_t1lt2lt3r,4421930338,correct
P4,3.85237E+14,s3,t2,24,s3_91_t1rt2rt3r,1101140044,correct
P4,3.8524E+14,s3,t2,25,s3_114_t1rt2lt3r,1205514895,correct
P4,3.85242E+14,s3,t2,26,s3_98_t1lt2rt3r,1198941003,correct
P4,3.85245E+14,s3,t2,27,s3_107_t1lt2lt3l,1314376692,correct
P4,3.85247E+14,s3,t2,28,s3_90_t1rt2rt3r,1372486543,error
P4,3.8525E+14,s3,t2,29,s3_111_t1rt2lt3r,2262112694,correct
P4,3.85254E+14,s3,t2,30,s3_93_t1rt2rt3r,1166906965,correct
P4,3.8526E+14,s3,t3,practice,s3_112_t1rt2lt3r,9263396277,correct
P4,3.8527E+14,s3,t3,practice,s3_104_t1rt2lt3l,710970869,correct
P4,3.85272E+14,s3,t3,practice,s3_116_t1lt2lt3r,1174896079,correct
P4,3.85275E+14,s3,t3,practice,s3_88_t1lt2rt3l,845322003,error
P4,3.85277E+14,s3,t3,practice,s3_108_t1lt2lt3l,1560850805,correct
P4,3.8528E+14,s3,t3,practice,s3_84_t1rt2rt3l,990911152,correct
P4,3.85283E+14,s3,t3,practice,s3_92_t1rt2rt3r,1461071088,correct
P4,3.85286E+14,s3,t3,practice,s3_96_t1lt2rt3r,862034022,correct
P4,3.8529E+14,s3,t3,practice,s3_80_t1rt2rt3l,2165049531,correct
P4,3.85294E+14,s3,t3,practice,s3_100_t1rt2lt3l,1038750968,correct
P4,3.85296E+14,s3,t3,practice,s3_108_t1lt2lt3l,988054526,correct
P4,3.85299E+14,s3,t3,practice,s3_116_t1lt2lt3r,1087211215,correct
P4,3.85301E+14,s3,t3,practice,s3_96_t1lt2rt3r,1319609868,correct
P4,3.85304E+14,s3,t3,practice,s3_112_t1rt2lt3r,1751288078,correct
P4,3.85307E+14,s3,t3,practice,s3_92_t1rt2rt3r,876038861,correct
P4,3.85318E+14,s3,t3,1,s3_103_t1rt2lt3l,1563700502,correct
P4,3.85321E+14,s3,t3,2,s3_94_t1rt2rt3r,966760992,correct
P4,3.85323E+14,s3,t3,3,s3_87_t1lt2rt3l,1276459316,correct
P4,3.85326E+14,s3,t3,4,s3_117_t1lt2lt3r,840192901,correct
P4,3.85328E+14,s3,t3,5,s3_89_t1lt2rt3l,1157795305,correct
P4,3.8533E+14,s3,t3,6,s3_109_t1lt2lt3l,887074034,correct
P4,3.85332E+14,s3,t3,7,s3_85_t1lt2rt3l,913576248,correct
P4,3.85334E+14,s3,t3,8,s3_97_t1lt2rt3r,562735462,correct
P4,3.85336E+14,s3,t3,9,s3_101_t1rt2lt3l,785799072,correct
P4,3.85338E+14,s3,t3,10,s3_95_t1lt2rt3r,1561101966,correct
P4,3.85341E+14,s3,t3,11,s3_99_t1lt2rt3r,1318247055,correct
P4,3.85344E+14,s3,t3,12,s3_110_t1rt2lt3r,516588891,correct
P4,3.85346E+14,s3,t3,13,s3_86_t1lt2rt3l,1574923711,error
P4,3.85348E+14,s3,t3,14,s3_105_t1lt2lt3l,996653564,correct
P4,3.85352E+14,s3,t3,15,s3_115_t1lt2lt3r,1025638149,correct
P4,3.85354E+14,s3,t3,16,s3_83_t1rt2rt3l,1309294884,correct
P4,3.85357E+14,s3,t3,17,s3_81_t1rt2rt3l,2061710706,correct
P4,3.8536E+14,s3,t3,18,s3_106_t1lt2lt3l,775915393,correct
P4,3.85362E+14,s3,t3,19,s3_82_t1rt2rt3l,885705465,correct
P4,3.85365E+14,s3,t3,20,s3_102_t1rt2lt3l,555981852,correct
P4,3.85366E+14,s3,t3,21,s3_113_t1rt2lt3r,1324749190,correct
P4,3.85369E+14,s3,t3,22,s3_119_t1lt2lt3r,8079354226,correct
P4,3.85378E+14,s3,t3,23,s3_118_t1lt2lt3r,809258414,correct
P4,3.8538E+14,s3,t3,24,s3_91_t1rt2rt3r,627279021,correct
P4,3.85382E+14,s3,t3,25,s3_114_t1rt2lt3r,523029809,correct
P4,3.85384E+14,s3,t3,26,s3_98_t1lt2rt3r,438942445,correct
P4,3.85386E+14,s3,t3,27,s3_107_t1lt2lt3l,612935821,correct
P4,3.85388E+14,s3,t3,28,s3_90_t1rt2rt3r,1039296273,correct
P4,3.85391E+14,s3,t3,29,s3_111_t1rt2lt3r,640612656,correct
P4,3.85393E+14,s3,t3,30,s3_93_t1rt2rt3r,545092100,correct
P4,3.85402E+14,s1,t1,practice,s1_32_t1rt2lt3r,25862535293,correct
P4,3.85429E+14,s1,t1,practice,s1_24_t1rt2lt3l,4579232197,correct
P4,3.85435E+14,s1,t1,practice,s1_36_t1lt2lt3r,789594902,correct
P4,3.85437E+14,s1,t1,practice,s1_8_t1lt2rt3l,488978840,correct
P4,3.85439E+14,s1,t1,practice,s1_28_t1lt2lt3l,802208616,correct
P4,3.85441E+14,s1,t1,practice,s1_4_t1rt2rt3l,674625849,correct
P4,3.85443E+14,s1,t1,practice,s1_12_t1rt2rt3r,1931421327,correct
P4,3.85446E+14,s1,t1,practice,s1_16_t1lt2rt3r,734927043,correct
P4,3.85448E+14,s1,t1,practice,s1_0_t1rt2rt3l,830368815,correct
P4,3.8545E+14,s1,t1,practice,s1_20_t1rt2lt3l,735600400,correct
P4,3.85452E+14,s1,t1,practice,s1_28_t1lt2lt3l,595251663,correct
P4,3.85454E+14,s1,t1,practice,s1_36_t1lt2lt3r,749124860,correct
P4,3.85456E+14,s1,t1,practice,s1_16_t1lt2rt3r,530608319,correct
P4,3.85458E+14,s1,t1,practice,s1_32_t1rt2lt3r,768031021,correct
P4,3.8546E+14,s1,t1,practice,s1_12_t1rt2rt3r,717166218,correct
P4,3.85471E+14,s1,t1,1,s1_23_t1rt2lt3l,1791111327,correct
P4,3.85475E+14,s1,t1,2,s1_14_t1rt2rt3r,566598610,correct
P4,3.85477E+14,s1,t1,3,s1_7_t1lt2rt3l,709707302,correct
P4,3.85479E+14,s1,t1,4,s1_37_t1lt2lt3r,906921997,correct
P4,3.85481E+14,s1,t1,5,s1_9_t1lt2rt3l,1058696078,correct
P4,3.85484E+14,s1,t1,6,s1_29_t1lt2lt3l,708573221,correct
P4,3.85486E+14,s1,t1,7,s1_5_t1lt2rt3l,557636822,correct
P4,3.85487E+14,s1,t1,8,s1_17_t1lt2rt3r,975948648,correct
P4,3.8549E+14,s1,t1,9,s1_21_t1rt2lt3l,775706391,correct
P4,3.85492E+14,s1,t1,10,s1_15_t1lt2rt3r,467429230,correct
P4,3.85494E+14,s1,t1,11,s1_19_t1lt2rt3r,690699104,correct
P4,3.85496E+14,s1,t1,12,s1_30_t1rt2lt3r,690082063,correct
P4,3.85498E+14,s1,t1,13,s1_6_t1lt2rt3l,394165216,correct
P4,3.855E+14,s1,t1,14,s1_25_t1lt2lt3l,489520986,correct
P4,3.85502E+14,s1,t1,15,s1_35_t1lt2lt3r,501230260,correct
P4,3.85503E+14,s1,t1,16,s1_3_t1rt2rt3l,763947322,correct
P4,3.85505E+14,s1,t1,17,s1_1_t1rt2rt3l,827055205,correct
P4,3.85508E+14,s1,t1,18,s1_26_t1lt2lt3l,604108662,correct
P4,3.85509E+14,s1,t1,19,s1_2_t1rt2rt3l,745497363,correct
P4,3.85512E+14,s1,t1,20,s1_22_t1rt2lt3l,492676758,correct
P4,3.85514E+14,s1,t1,21,s1_33_t1rt2lt3r,616524568,correct
P4,3.85516E+14,s1,t1,22,s1_39_t1lt2lt3r,1500243529,correct
P4,3.85518E+14,s1,t1,23,s1_38_t1lt2lt3r,693796131,correct
P4,3.8552E+14,s1,t1,24,s1_11_t1rt2rt3r,1136500736,correct
P4,3.85523E+14,s1,t1,25,s1_34_t1rt2lt3r,888617736,correct
P4,3.85525E+14,s1,t1,26,s1_18_t1lt2rt3r,818904016,correct
P4,3.85527E+14,s1,t1,27,s1_27_t1lt2lt3l,673894628,correct
P4,3.85529E+14,s1,t1,28,s1_10_t1rt2rt3r,661213061,correct
P4,3.85531E+14,s1,t1,29,s1_31_t1rt2lt3r,811247629,correct
P4,3.85534E+14,s1,t1,30,s1_13_t1rt2rt3r,845770947,correct
P4,3.85538E+14,s1,t2,practice,s1_32_t1rt2lt3r,4245747756,error
P4,3.85544E+14,s1,t2,practice,s1_24_t1rt2lt3l,996583572,correct
P4,3.85546E+14,s1,t2,practice,s1_36_t1lt2lt3r,988817041,correct
P4,3.85548E+14,s1,t2,practice,s1_8_t1lt2rt3l,1045127777,correct
P4,3.8555E+14,s1,t2,practice,s1_28_t1lt2lt3l,756666115,correct
P4,3.85553E+14,s1,t2,practice,s1_4_t1rt2rt3l,696295453,correct
P4,3.85555E+14,s1,t2,practice,s1_12_t1rt2rt3r,707852514,correct
P4,3.85557E+14,s1,t2,practice,s1_16_t1lt2rt3r,1554166013,correct
P4,3.85559E+14,s1,t2,practice,s1_0_t1rt2rt3l,2209889906,correct
P4,3.85563E+14,s1,t2,practice,s1_20_t1rt2lt3l,719355202,correct
P4,3.85566E+14,s1,t2,practice,s1_28_t1lt2lt3l,2697188301,error
P4,3.8557E+14,s1,t2,practice,s1_36_t1lt2lt3r,2270982274,correct
P4,3.85573E+14,s1,t2,practice,s1_16_t1lt2rt3r,992051678,correct
P4,3.85575E+14,s1,t2,practice,s1_32_t1rt2lt3r,2552873775,correct
P4,3.85579E+14,s1,t2,practice,s1_12_t1rt2rt3r,1324875540,correct
P4,3.85591E+14,s1,t2,1,s1_23_t1rt2lt3l,7876012976,correct
P4,3.856E+14,s1,t2,2,s1_14_t1rt2rt3r,1152137338,correct
P4,3.85603E+14,s1,t2,3,s1_7_t1lt2rt3l,678539001,correct
P4,3.85605E+14,s1,t2,4,s1_37_t1lt2lt3r,1237576660,correct
P4,3.85607E+14,s1,t2,5,s1_9_t1lt2rt3l,781922125,correct
P4,3.85609E+14,s1,t2,6,s1_29_t1lt2lt3l,997675329,correct
P4,3.85612E+14,s1,t2,7,s1_5_t1lt2rt3l,1987464892,correct
P4,3.85615E+14,s1,t2,8,s1_17_t1lt2rt3r,710187750,correct
P4,3.85617E+14,s1,t2,9,s1_21_t1rt2lt3l,710781838,correct
P4,3.85619E+14,s1,t2,10,s1_15_t1lt2rt3r,5750671771,correct
P4,3.85626E+14,s1,t2,11,s1_19_t1lt2rt3r,1180650879,correct
P4,3.85629E+14,s1,t2,12,s1_30_t1rt2lt3r,887295573,correct
P4,3.85632E+14,s1,t2,13,s1_6_t1lt2rt3l,4078939921,correct
P4,3.85637E+14,s1,t2,14,s1_25_t1lt2lt3l,1027408518,correct
P4,3.85639E+14,s1,t2,15,s1_35_t1lt2lt3r,1127542818,error
P4,3.85642E+14,s1,t2,16,s1_3_t1rt2rt3l,1713096003,correct
P4,3.85645E+14,s1,t2,17,s1_1_t1rt2rt3l,921158583,correct
P4,3.85647E+14,s1,t2,18,s1_26_t1lt2lt3l,652532660,correct
P4,3.85651E+14,s1,t2,19,s1_2_t1rt2rt3l,1916681883,correct
P4,3.85654E+14,s1,t2,20,s1_22_t1rt2lt3l,3428805659,error
P4,3.85659E+14,s1,t2,21,s1_33_t1rt2lt3r,825565882,correct
P4,3.85661E+14,s1,t2,22,s1_39_t1lt2lt3r,934003673,correct
P4,3.85663E+14,s1,t2,23,s1_38_t1lt2lt3r,542095151,correct
P4,3.85665E+14,s1,t2,24,s1_11_t1rt2rt3r,1626140370,correct
P4,3.85668E+14,s1,t2,25,s1_34_t1rt2lt3r,768044835,correct
P4,3.8567E+14,s1,t2,26,s1_18_t1lt2rt3r,1101676862,correct
P4,3.85673E+14,s1,t2,27,s1_27_t1lt2lt3l,596312026,correct
P4,3.85675E+14,s1,t2,28,s1_10_t1rt2rt3r,912783770,correct
P4,3.85677E+14,s1,t2,29,s1_31_t1rt2lt3r,937645126,correct
P4,3.85679E+14,s1,t2,30,s1_13_t1rt2rt3r,1873196491,correct
P4,3.85684E+14,s1,t3,practice,s1_32_t1rt2lt3r,1962374329,correct
P4,3.85688E+14,s1,t3,practice,s1_24_t1rt2lt3l,763325010,correct
P4,3.8569E+14,s1,t3,practice,s1_36_t1lt2lt3r,756310672,correct
P4,3.85693E+14,s1,t3,practice,s1_8_t1lt2rt3l,245332308,correct
P4,3.85694E+14,s1,t3,practice,s1_28_t1lt2lt3l,751928967,correct
P4,3.85697E+14,s1,t3,practice,s1_4_t1rt2rt3l,864730689,error
P4,3.85699E+14,s1,t3,practice,s1_12_t1rt2rt3r,812876392,correct
P4,3.85701E+14,s1,t3,practice,s1_16_t1lt2rt3r,985842810,correct
P4,3.85703E+14,s1,t3,practice,s1_0_t1rt2rt3l,835686610,correct
P4,3.85706E+14,s1,t3,practice,s1_20_t1rt2lt3l,1311610377,error
P4,3.85708E+14,s1,t3,practice,s1_28_t1lt2lt3l,869746815,correct
P4,3.85711E+14,s1,t3,practice,s1_36_t1lt2lt3r,963603935,correct
P4,3.85713E+14,s1,t3,practice,s1_16_t1lt2rt3r,606306872,correct
P4,3.85715E+14,s1,t3,practice,s1_32_t1rt2lt3r,780826440,correct
P4,3.85717E+14,s1,t3,practice,s1_12_t1rt2rt3r,851825561,correct
P4,3.85729E+14,s1,t3,1,s1_23_t1rt2lt3l,3076290719,correct
P4,3.85733E+14,s1,t3,2,s1_14_t1rt2rt3r,739312825,correct
P4,3.85735E+14,s1,t3,3,s1_7_t1lt2rt3l,737371176,correct
P4,3.85737E+14,s1,t3,4,s1_37_t1lt2lt3r,612106443,correct
P4,3.85739E+14,s1,t3,5,s1_9_t1lt2rt3l,592983581,correct
P4,3.85741E+14,s1,t3,6,s1_29_t1lt2lt3l,781660656,correct
P4,3.85743E+14,s1,t3,7,s1_5_t1lt2rt3l,828764777,correct
P4,3.85745E+14,s1,t3,8,s1_17_t1lt2rt3r,726268096,correct
P4,3.85747E+14,s1,t3,9,s1_21_t1rt2lt3l,831879125,correct
P4,3.85749E+14,s1,t3,10,s1_15_t1lt2rt3r,699231599,correct
P4,3.85751E+14,s1,t3,11,s1_19_t1lt2rt3r,728674282,correct
P4,3.85753E+14,s1,t3,12,s1_30_t1rt2lt3r,632143564,correct
P4,3.85756E+14,s1,t3,13,s1_6_t1lt2rt3l,775891335,correct
P4,3.85759E+14,s1,t3,14,s1_25_t1lt2lt3l,1029374765,correct
P4,3.85761E+14,s1,t3,15,s1_35_t1lt2lt3r,655051965,correct
P4,3.85763E+14,s1,t3,16,s1_3_t1rt2rt3l,788796903,correct
P4,3.85765E+14,s1,t3,17,s1_1_t1rt2rt3l,1036144446,correct
P4,3.85767E+14,s1,t3,18,s1_26_t1lt2lt3l,911335739,correct
P4,3.8577E+14,s1,t3,19,s1_2_t1rt2rt3l,1982884921,correct
P4,3.85773E+14,s1,t3,20,s1_22_t1rt2lt3l,927117304,correct
P4,3.85776E+14,s1,t3,21,s1_33_t1rt2lt3r,916420810,correct
P4,3.85778E+14,s1,t3,22,s1_39_t1lt2lt3r,927001686,correct
P4,3.8578E+14,s1,t3,23,s1_38_t1lt2lt3r,863527827,correct
P4,3.85783E+14,s1,t3,24,s1_11_t1rt2rt3r,531144264,correct
P4,3.85784E+14,s1,t3,25,s1_34_t1rt2lt3r,640193394,correct
P4,3.85786E+14,s1,t3,26,s1_18_t1lt2rt3r,496346670,correct
P4,3.85788E+14,s1,t3,27,s1_27_t1lt2lt3l,1257509811,correct
P4,3.85791E+14,s1,t3,28,s1_10_t1rt2rt3r,469493974,correct
P4,3.85793E+14,s1,t3,29,s1_31_t1rt2lt3r,615645594,correct
P4,3.85794E+14,s1,t3,30,s1_13_t1rt2rt3r,583017152,correct